TRNG/rtl/dump.vcd
$date
    Sep 25, 2023  22:09:12
$end
$version
    TOOL:	xmsim	21.03-s015
$end
$timescale
    1 ns
$end

$scope module tb_TRNG_Top_128 $end
$var reg       1 !    TRNG_Go $end
$var reg       2 "    Op_Type [1:0] $end
$var reg       1 #    clk $end
$var reg       1 $    Resetn $end
$var wire      1 %    TRNG_Done  $end
$var reg      512 &    data_in [511:0] $end
$var wire     128 '    data_out [127:0] $end

$scope module UUT $end
$var parameter 32 (    P_ADDR_WIDTH $end
$var parameter 32 )    P_DATA_WIDTH $end
$var wire      1 *    TRNG_Go  $end
$var wire      2 +    Op_Type [1:0] $end
$var wire      1 ,    clk  $end
$var wire      1 -    Resetn  $end
$var wire      1 %    TRNG_Done  $end
$var wire     512 .    data_in [511:0] $end
$var wire     128 '    data_out [127:0] $end
$var wire      1 /    mux1_sel  $end
$var wire      1 0    mux2_sel  $end
$var wire      1 1    Hash_Go  $end
$var wire      1 2    Hash_done  $end
$var wire      1 3    rst_reg_1  $end
$var wire      1 4    en_reg_1  $end
$var wire      1 5    rst_reg_2  $end
$var wire      1 6    en_reg_2  $end

$scope module controller $end
$var parameter 32 7    P_ADDR_WIDTH $end
$var parameter 32 8    P_DATA_WIDTH $end
$var wire      1 *    TRNG_Go  $end
$var wire      2 +    Op_Type [1:0] $end
$var wire      1 ,    clk  $end
$var wire      1 -    Resetn  $end
$var reg       1 9    TRNG_Done $end
$var reg       1 :    mux1_sel $end
$var reg       1 ;    mux2_sel $end
$var reg       1 <    Hash_Go $end
$var wire      1 2    Hash_done  $end
$var reg       1 =    rst_reg_1 $end
$var reg       1 >    rst_reg_2 $end
$var reg       1 ?    en_reg_1 $end
$var reg       1 @    en_reg_2 $end
$var reg       2 A    ctrl_state [1:0] $end
$var reg       2 B    Op_Type_reg [1:0] $end
$upscope $end


$scope module datapath $end
$var parameter 32 C    Output $end
$var wire      1 ,    clk  $end
$var wire      1 -    Resetn  $end
$var wire     512 .    data_in [511:0] $end
$var wire     128 '    data_out [127:0] $end
$var wire      1 /    mux1_sel  $end
$var wire      1 1    Hash_Go  $end
$var wire      1 2    Hash_done  $end
$var wire      1 3    rst_reg_1  $end
$var wire      1 4    en_reg_1  $end
$var wire      1 5    rst_reg_2  $end
$var wire      1 6    en_reg_2  $end
$var wire     512 D    mux1_out [511:0] $end
$var wire     256 E    Hash_Out [255:0] $end
$var wire     256 F    reg_1_out [255:0] $end
$var wire     256 G    reg_2_out [255:0] $end
$var wire     128 H    xor_out [127:0] $end

$scope module HashBlock $end
$var wire      1 ,    clk  $end
$var wire      1 I    rst  $end
$var wire      1 1    go  $end
$var wire     512 D    data_in [511:0] $end
$var wire     256 E    data_out [255:0] $end
$var wire      1 2    done  $end
$var wire     32 J    data [31:0] $end
$var wire     32 K    text_o0 [31:0] $end
$var wire     32 L    text_o1 [31:0] $end
$var wire     32 M    text_o2 [31:0] $end
$var wire     32 N    text_o3 [31:0] $end
$var wire     32 O    text_o4 [31:0] $end
$var wire     32 P    text_o5 [31:0] $end
$var wire     32 Q    text_o6 [31:0] $end
$var wire     32 R    text_o7 [31:0] $end
$var wire      1 S    done_SHA  $end
$var wire      3 T    cmd_i [2:0] $end
$var wire      4 U    cmd_o [3:0] $end
$var wire      1 V    cmd_w_i  $end
$var wire     447 W    zeros [446:0] $end
$var wire     64 X    length_sha [63:0] $end
$var wire     1024 Y    padded_data [1023:0] $end

$scope module u_sha256 $end
$var wire      1 ,    clk_i  $end
$var wire      1 I    rst_i  $end
$var wire     32 J    text_i [31:0] $end
$var reg      32 Z    text_o [31:0] $end
$var reg      32 [    text_o0 [31:0] $end
$var reg      32 \    text_o1 [31:0] $end
$var reg      32 ]    text_o2 [31:0] $end
$var reg      32 ^    text_o3 [31:0] $end
$var reg      32 _    text_o4 [31:0] $end
$var reg      32 `    text_o5 [31:0] $end
$var reg      32 a    text_o6 [31:0] $end
$var reg      32 b    text_o7 [31:0] $end
$var reg       1 c    done $end
$var wire      3 T    cmd_i [2:0] $end
$var wire      1 V    cmd_w_i  $end
$var wire      4 U    cmd_o [3:0] $end
$var reg       4 d    cmd [3:0] $end
$var reg       7 e    round [6:0] $end
$var wire      7 f    round_plus_1 [6:0] $end
$var reg       3 g    read_counter [2:0] $end
$var reg      32 h    H0 [31:0] $end
$var reg      32 i    H1 [31:0] $end
$var reg      32 j    H2 [31:0] $end
$var reg      32 k    H3 [31:0] $end
$var reg      32 l    H4 [31:0] $end
$var reg      32 m    H5 [31:0] $end
$var reg      32 n    H6 [31:0] $end
$var reg      32 o    H7 [31:0] $end
$var reg      32 p    W0 [31:0] $end
$var reg      32 q    W1 [31:0] $end
$var reg      32 r    W2 [31:0] $end
$var reg      32 s    W3 [31:0] $end
$var reg      32 t    W4 [31:0] $end
$var reg      32 u    W5 [31:0] $end
$var reg      32 v    W6 [31:0] $end
$var reg      32 w    W7 [31:0] $end
$var reg      32 x    W8 [31:0] $end
$var reg      32 y    W9 [31:0] $end
$var reg      32 z    W10 [31:0] $end
$var reg      32 {    W11 [31:0] $end
$var reg      32 |    W12 [31:0] $end
$var reg      32 }    W13 [31:0] $end
$var reg      32 ~    W14 [31:0] $end
$var reg      32 !!   Wt [31:0] $end
$var reg      32 "!   Kt [31:0] $end
$var reg      32 #!   A [31:0] $end
$var reg      32 $!   B [31:0] $end
$var reg      32 %!   C [31:0] $end
$var reg      32 &!   D [31:0] $end
$var reg      32 '!   E [31:0] $end
$var reg      32 (!   F [31:0] $end
$var reg      32 )!   G [31:0] $end
$var reg      32 *!   H [31:0] $end
$var reg       1 +!   busy $end
$var wire     32 ,!   f1_EFG_32 [31:0] $end
$var wire     32 -!   f2_ABC_32 [31:0] $end
$var wire     32 .!   f3_A_32 [31:0] $end
$var wire     32 /!   f4_E_32 [31:0] $end
$var wire     32 0!   f5_W1_32 [31:0] $end
$var wire     32 1!   f6_W14_32 [31:0] $end
$var wire     32 2!   T1_32 [31:0] $end
$var wire     32 3!   T2_32 [31:0] $end
$var wire     32 4!   next_Wt [31:0] $end
$var wire     32 5!   next_E [31:0] $end
$var wire     32 6!   next_A [31:0] $end
$var wire     256 7!   SHA256_result [255:0] $end
$upscope $end


$scope module u_controller256 $end
$var wire      1 ,    clk  $end
$var wire      1 I    rst  $end
$var wire      1 1    go  $end
$var wire     1024 Y    data_in [1023:0] $end
$var reg      32 8!   data [31:0] $end
$var wire      1 S    done_SHA  $end
$var reg       3 9!   cmd_i [2:0] $end
$var reg       1 :!   cmd_w_i $end
$var wire      4 U    cmd_o [3:0] $end
$var reg       1 ;!   done $end
$var parameter  4 <!   WAIT_FOR_GO [3:0] $end
$var parameter  4 =!   SHA_1 [3:0] $end
$var parameter  4 >!   SHA_READ_1 [3:0] $end
$var parameter  4 ?!   SHA_WAIT1 [3:0] $end
$var parameter  4 @!   SHA_SET1 [3:0] $end
$var parameter  4 A!   SHA_READ_2 [3:0] $end
$var parameter  4 B!   SHA_WAIT2 [3:0] $end
$var parameter  4 C!   SHA_SET2 [3:0] $end
$var parameter  4 D!   S_DONE [3:0] $end
$var reg       5 E!   count [4:0] $end
$var reg       4 F!   state [3:0] $end
$var reg      32 G!   arr[0] [31:0] $end
$var reg      32 H!   arr[1] [31:0] $end
$var reg      32 I!   arr[2] [31:0] $end
$var reg      32 J!   arr[3] [31:0] $end
$var reg      32 K!   arr[4] [31:0] $end
$var reg      32 L!   arr[5] [31:0] $end
$var reg      32 M!   arr[6] [31:0] $end
$var reg      32 N!   arr[7] [31:0] $end
$var reg      32 O!   arr[8] [31:0] $end
$var reg      32 P!   arr[9] [31:0] $end
$var reg      32 Q!   arr[10] [31:0] $end
$var reg      32 R!   arr[11] [31:0] $end
$var reg      32 S!   arr[12] [31:0] $end
$var reg      32 T!   arr[13] [31:0] $end
$var reg      32 U!   arr[14] [31:0] $end
$var reg      32 V!   arr[15] [31:0] $end
$var reg      32 W!   arr[16] [31:0] $end
$var reg      32 X!   arr[17] [31:0] $end
$var reg      32 Y!   arr[18] [31:0] $end
$var reg      32 Z!   arr[19] [31:0] $end
$var reg      32 [!   arr[20] [31:0] $end
$var reg      32 \!   arr[21] [31:0] $end
$var reg      32 ]!   arr[22] [31:0] $end
$var reg      32 ^!   arr[23] [31:0] $end
$var reg      32 _!   arr[24] [31:0] $end
$var reg      32 `!   arr[25] [31:0] $end
$var reg      32 a!   arr[26] [31:0] $end
$var reg      32 b!   arr[27] [31:0] $end
$var reg      32 c!   arr[28] [31:0] $end
$var reg      32 d!   arr[29] [31:0] $end
$var reg      32 e!   arr[30] [31:0] $end
$var reg      32 f!   arr[31] [31:0] $end
$var integer  32 g!   i $end
$upscope $end

$upscope $end


$scope module reg_1 $end
$var parameter 32 h!   width $end
$var wire      1 ,    clk  $end
$var wire      1 3    rst  $end
$var wire      1 4    en  $end
$var wire     256 E    in [255:0] $end
$var reg      256 i!   out [255:0] $end
$upscope $end


$scope module reg_2 $end
$var parameter 32 j!   width $end
$var wire      1 ,    clk  $end
$var wire      1 5    rst  $end
$var wire      1 6    en  $end
$var wire     256 F    in [255:0] $end
$var reg      256 k!   out [255:0] $end
$upscope $end


$scope module mux1 $end
$var parameter 32 l!   WIDTH $end
$var wire     512 .    a [511:0] $end
$var wire     512 m!   b [511:0] $end
$var wire     512 D    z [511:0] $end
$var wire      1 /    sel  $end
$upscope $end

$upscope $end

$upscope $end

$upscope $end

$enddefinitions $end
$dumpvars
b1000000000 l!
b100000000 j!
b100000000 h!
b1000 D!
b111 C!
b110 B!
b101 A!
b100 @!
b11 ?!
b10 >!
b1 =!
b0 <!
b10000000 C
b100000 8
b1100 7
b100000 )
b1100 (
x!
bx "
0#
0$
x%
bx &
b0 '
x*
bx +
0,
0-
bx .
x/
x0
x1
02
13
x4
15
x6
x9
x:
x;
x<
1=
1>
x?
x@
b0 A
bx B
bx D
bx E
b0 F
b0 G
b0 H
1I
b0 J
bx K
bx L
bx M
bx N
bx O
bx P
bx Q
bx R
xS
b0 T
bx U
0V
b0 W
b1000000000 X
bx000000000000000000000000000000000000000000000000000000000000000000000000000000000000000000000000000000000000000000000000000000000000000000000000000000000000000000000000000000000000000000000000000000000000000000000000000000000000000000000000000000000000000000000000000000000000000000000000000000000000000000000000000000000000000000000000000000000000000000000000000000000000000000000000000000000000000000000000000000000000000000000000000000000000000000000000000000000000000000000000000000000000000000000x000000000 Y
bx Z
bx [
bx \
bx ]
bx ^
bx _
bx `
bx a
bx b
xc
bx d
bx e
bx f
bx g
bx h
bx i
bx j
bx k
bx l
bx m
bx n
bx o
bx p
bx q
bx r
bx s
bx t
bx u
bx v
bx w
bx x
bx y
bx z
bx {
bx |
bx }
bx ~
bx !!
bx "!
bx #!
bx $!
bx %!
bx &!
bx '!
bx (!
bx )!
bx *!
x+!
bx ,!
bx -!
bx .!
bx /!
bx 0!
bx 1!
bx 2!
bx 3!
bx 4!
bx 5!
bx 6!
bx 7!
b0 8!
b0 9!
0:!
0;!
b0 E!
b0 F!
bx G!
bx H!
bx I!
bx J!
bx K!
bx L!
bx M!
bx N!
bx O!
bx P!
bx Q!
bx R!
bx S!
bx T!
bx U!
bx V!
bx W!
bx X!
bx Y!
bx Z!
bx [!
bx \!
bx ]!
bx ^!
bx _!
bx `!
bx a!
bx b!
bx c!
bx d!
bx e!
bx f!
bx g!
b0 i!
b0 k!
b0 m!
$end
#20
1#
1,
b0 Z
b0 g
b0 "!
b0 e
0+!
b0 p
b0 q
b0 r
b0 s
b0 t
b0 u
b0 v
b0 w
b0 x
b0 y
b0 z
b0 {
b0 |
b0 }
b0 ~
b0 !!
b0 #!
b0 $!
b0 %!
b0 &!
b0 '!
b0 (!
b0 )!
b0 *!
b0 h
b0 i
b0 j
b0 k
b0 l
b0 m
b0 n
b0 o
b0 d
b0 /!
b0 ,!
b0 7!
b0 .!
b0 -!
b0 1!
b0 0!
b1 f
b0 U
b0 4!
b0 3!
b0 2!
b0 5!
b0 6!
#40
1$
b0 "
0!
b101100010101001111000 &
0#
0,
b101100010101001111000 .
0*
b0 +
1-
0I
b0x0xx000x0x0x00xxxx000 D
b0x0xx000x0x0x00xxxx000x000000000000000000000000000000000000000000000000000000000000000000000000000000000000000000000000000000000000000000000000000000000000000000000000000000000000000000000000000000000000000000000000000000000000000000000000000000000000000000000000000000000000000000000000000000000000000000000000000000000000000000000000000000000000000000000000000000000000000000000000000000000000000000000000000000000000000000000000000000000000000000000000000000000000000000000000000000000000000000000000000000000000000000000x000000000 Y
#60
1#
1,
0:
0/
b101100010101001111000 D
19
0=
0>
0?
0@
0<
0c
b1000010100010100010111110011000 "!
b1000010100010100010111110011000 2!
0S
01
06
04
05
03
1%
b0 Y
b1000010100010100010111110011000 5!
b1000010100010100010111110011000 6!
#80
1!
0#
0,
1*
#100
1#
1,
b1 A
b0 B
09
0%
#120
0!
0#
0,
0*
#140
1#
1,
1<
b10 A
11
b10110001010100111100010000000000000000000000000000000000000000000000000000000000000000000000000000000000000000000000000000000000000000000000000000000000000000000000000000000000000000000000000000000000000000000000000000000000000000000000000000000000000000000000000000000000000000000000000000000000000000000000000000000000000000000000000000000000000000000000000000000000000000000000000000000000000000000000000000000000000000000000000000000000000000000000000000000000000000000000000000000000000000000000000000000000000000000001000000000 Y
#160
0#
0,
#180
1#
1,
0<
b1 F!
b1000000000 G!
b0 H!
b0 I!
b0 J!
b0 K!
b0 L!
b0 M!
b0 N!
b0 O!
b0 P!
b0 Q!
b0 R!
b0 S!
b0 T!
b0 U!
b10000000000000000000000000000000 V!
b101100010101001111000 W!
b0 X!
b0 Y!
b0 Z!
b0 [!
b0 \!
b0 ]!
b0 ^!
b0 _!
b0 `!
b0 a!
b0 b!
b0 c!
b0 d!
b0 e!
b0 f!
01
b0 Y
#200
0#
0,
#220
1#
1,
1:!
b10 9!
b10 F!
b10 T
1V
#240
0#
0,
#260
1#
1,
b1 g!
b10 g!
b11 g!
b100 g!
b101 g!
b110 g!
b111 g!
b1000 g!
b1001 g!
b1010 g!
b1011 g!
b1100 g!
b1101 g!
b1110 g!
b1111 g!
b10000 g!
b10001 g!
b10010 g!
b10011 g!
b10100 g!
b10101 g!
b10110 g!
b10111 g!
b11000 g!
b11001 g!
b11010 g!
b11011 g!
b11100 g!
b11101 g!
b11110 g!
b11111 g!
b100000 g!
0:!
b1000000000 H!
b0 V!
b10000000000000000000000000000000 W!
b101100010101001111000 X!
b0 G!
b1 E!
b10 d
b10 U
0V
#280
0#
0,
#300
1#
1,
b1 g!
b10 g!
b11 g!
b100 g!
b101 g!
b110 g!
b111 g!
b1000 g!
b1001 g!
b1010 g!
b1011 g!
b1100 g!
b1101 g!
b1110 g!
b1111 g!
b10000 g!
b10001 g!
b10010 g!
b10011 g!
b10100 g!
b10101 g!
b10110 g!
b10111 g!
b11000 g!
b11001 g!
b11010 g!
b11011 g!
b11100 g!
b11101 g!
b11110 g!
b11111 g!
b100000 g!
b0 H!
b1000000000 I!
b0 W!
b10000000000000000000000000000000 X!
b101100010101001111000 Y!
b10 E!
1+!
b1 e
b1101010000010011110011001100111 #!
b10111011011001111010111010000101 $!
b111100011011101111001101110010 %!
b10100101010011111111010100111010 &!
b1010001000011100101001001111111 '!
b10011011000001010110100010001100 (!
b11111100000111101100110101011 )!
b1011011111000001100110100011001 *!
b1101010000010011110011001100111 h
b10111011011001111010111010000101 i
b111100011011101111001101110010 j
b10100101010011111111010100111010 k
b1010001000011100101001001111111 l
b10011011000001010110100010001100 m
b11111100000111101100110101011 n
b1011011111000001100110100011001 o
b0 d
b10011110011010101111110010110001 2!
b110101100001110010011100101011 /!
b11111100001011100100110001100 ,!
b11100111110110100010010011010010 5!
b110101000001001111001100110011110111011011001111010111010000101001111000110111011110011011100101010010101001111111101010011101001010001000011100101001001111111100110110000010101101000100011000001111110000011110110011010101101011011111000001100110100011001 7!
b11001110001000001011010001111110 .!
b111010011011111110011001100111 -!
b10 f
b0 U
b1000100100001001101011100101 3!
b11110011011101111110110101101000 2!
b1000011101110101111000111101011 5!
b10011110011010101111110010110001 6!
b10011000110001111110001010100010 5!
b11111100000010001000100001001101 6!
#320
0#
0,
#340
1#
1,
b1 g!
b10 g!
b11 g!
b100 g!
b101 g!
b110 g!
b111 g!
b1000 g!
b1001 g!
b1010 g!
b1011 g!
b1100 g!
b1101 g!
b1110 g!
b1111 g!
b10000 g!
b10001 g!
b10010 g!
b10011 g!
b10100 g!
b10101 g!
b10110 g!
b10111 g!
b11000 g!
b11001 g!
b11010 g!
b11011 g!
b11100 g!
b11101 g!
b11110 g!
b11111 g!
b100000 g!
b0 I!
b1000000000 J!
b0 X!
b10000000000000000000000000000000 Y!
b101100010101001111000 Z!
b11 E!
b1110001001101110100010010010001 "!
b11111100000111101100110101011 *!
b10011011000001010110100010001100 )!
b1010001000011100101001001111111 (!
b10011000110001111110001010100010 '!
b111100011011101111001101110010 &!
b10111011011001111010111010000101 %!
b1101010000010011110011001100111 $!
b11111100000010001000100001001101 #!
b10 e
b1000 d
b11 f
b11111010011001111010110100111 .!
b11111010000010011010111001000101 -!
b101111111001101110000011011010 5!
b10111101110000010101011000111010 /!
b10011000001100100101000101110 ,!
b1111110000001000100010000100110101101010000010011110011001100111101110110110011110101110100001010011110001101110111100110111001010011000110001111110001010100010010100010000111001010010011111111001101100000101011010001000110000011111100000111101100110101011 7!
b11100101110010000000111011110011 2!
b1000 U
b100010001101110000001001100101 5!
b11101110010110001010100111011000 6!
b1100001100000101011111010100100 2!
b11001010101101010001111101100 3!
b10011101111100011011001000010110 5!
b1111010110110010110001010010000 6!
#360
0#
0,
#380
1#
1,
b1 g!
b10 g!
b11 g!
b100 g!
b101 g!
b110 g!
b111 g!
b1000 g!
b1001 g!
b1010 g!
b1011 g!
b1100 g!
b1101 g!
b1110 g!
b1111 g!
b10000 g!
b10001 g!
b10010 g!
b10011 g!
b10100 g!
b10101 g!
b10110 g!
b10111 g!
b11000 g!
b11001 g!
b11010 g!
b11011 g!
b11100 g!
b11101 g!
b11110 g!
b11111 g!
b100000 g!
b0 J!
b1000000000 K!
b0 Y!
b10000000000000000000000000000000 Z!
b101100010101001111000 [!
b100 E!
b10110101110000001111101111001111 "!
b10011011000001010110100010001100 *!
b1010001000011100101001001111111 )!
b10011000110001111110001010100010 (!
b10011101111100011011001000010110 '!
b10111011011001111010111010000101 &!
b1101010000010011110011001100111 %!
b11111100000010001000100001001101 $!
b1111010110110010110001010010000 #!
b11 e
b100 f
b1101111101111111100111110000100 .!
b1111010000010011110001001000101 -!
b11100111010100110110100101001 5!
b11100000011111010111001110110000 /!
b11011000110011111110001001101011 ,!
b111101011011001011000101001000011111100000010001000100001001101011010100000100111100110011001111011101101100111101011101000010110011101111100011011001000010110100110001100011111100010101000100101000100001110010100100111111110011011000001010110100010001100 7!
b100001100011100000010011000011 2!
b11011100111101011011001101001000 5!
b111010111001001010100010101111 6!
b1010000100111011101001110110 2!
b11101001110010011011000111001001 3!
b11000101011110110110100011111011 5!
b11110011110111010110110000111111 6!
#400
0#
0,
#420
1#
1,
b1 g!
b10 g!
b11 g!
b100 g!
b101 g!
b110 g!
b111 g!
b1000 g!
b1001 g!
b1010 g!
b1011 g!
b1100 g!
b1101 g!
b1110 g!
b1111 g!
b10000 g!
b10001 g!
b10010 g!
b10011 g!
b10100 g!
b10101 g!
b10110 g!
b10111 g!
b11000 g!
b11001 g!
b11010 g!
b11011 g!
b11100 g!
b11101 g!
b11110 g!
b11111 g!
b100000 g!
b0 K!
b1000000000 L!
b0 Z!
b10000000000000000000000000000000 [!
b101100010101001111000 \!
b101 E!
b11101001101101011101101110100101 "!
b1010001000011100101001001111111 *!
b10011000110001111110001010100010 )!
b10011101111100011011001000010110 (!
b11000101011110110110100011111011 '!
b1101010000010011110011001100111 &!
b11111100000010001000100001001101 %!
b1111010110110010110001010010000 $!
b11110011110111010110110000111111 #!
b100 e
b101 f
b11101000101110000011101000101011 .!
b11111010110110010110100000011101 -!
b1110100000111011010000011011101 5!
b1001101110110010011111100101100 /!
b10011101111101011010001000010010 ,!
b1111001111011101011011000011111101111010110110010110001010010000111111000000100010001000010011010110101000001001111001100110011111000101011110110110100011111011100111011111000110110010000101101001100011000111111000101010001001010001000011100101001001111111 7!
b11110100000100011000010000111111 2!
b1011110000110110110101010100110 5!
b11011101110110110011011000001000 6!
b100110100100110000111101100010 2!
b11100011100100011010001001001000 3!
b10010000100111001111010111001001 5!
b1010001001001011000110101010 6!
#440
0#
0,
#460
1#
1,
b1 g!
b10 g!
b11 g!
b100 g!
b101 g!
b110 g!
b111 g!
b1000 g!
b1001 g!
b1010 g!
b1011 g!
b1100 g!
b1101 g!
b1110 g!
b1111 g!
b10000 g!
b10001 g!
b10010 g!
b10011 g!
b10100 g!
b10101 g!
b10110 g!
b10111 g!
b11000 g!
b11001 g!
b11010 g!
b11011 g!
b11100 g!
b11101 g!
b11110 g!
b11111 g!
b100000 g!
b0 L!
b1000000000 M!
b0 [!
b10000000000000000000000000000000 \!
b101100010101001111000 ]!
b110 E!
b111001010101101100001001011011 "!
b10011000110001111110001010100010 *!
b10011101111100011011001000010110 )!
b11000101011110110110100011111011 (!
b10010000100111001111010111001001 '!
b11111100000010001000100001001101 &!
b1111010110110010110001010010000 %!
b11110011110111010110110000111111 $!
b1010001001001011000110101010 #!
b101 e
b110 f
b10011101000111111101010101100111 .!
b1111010110111010110000010111010 -!
b100010100110111001011110101111 5!
b11010001000010101000010010000001 /!
b10001101011110010110001011011111 ,!
b101000100100101100011010101011110011110111010110110000111111011110101101100101100010100100001111110000001000100010000100110110010000100111001111010111001001110001010111101101101000111110111001110111110001101100100001011010011000110001111110001010100010 7!
b10111101111011011000011000111011 2!
b10111001111101100000111010001000 5!
b10100001011111110010100010000011 6!
b110000101000101000110001011101 2!
b10111111111010011011000100001 3!
b101100101010110001010010101010 5!
b1001000100111111100001001111110 6!
#480
0#
0,
#500
1#
1,
b1 g!
b10 g!
b11 g!
b100 g!
b101 g!
b110 g!
b111 g!
b1000 g!
b1001 g!
b1010 g!
b1011 g!
b1100 g!
b1101 g!
b1110 g!
b1111 g!
b10000 g!
b10001 g!
b10010 g!
b10011 g!
b10100 g!
b10101 g!
b10110 g!
b10111 g!
b11000 g!
b11001 g!
b11010 g!
b11011 g!
b11100 g!
b11101 g!
b11110 g!
b11111 g!
b100000 g!
b0 M!
b1000000000 N!
b0 \!
b10000000000000000000000000000000 ]!
b101100010101001111000 ^!
b111 E!
b1011001111100010001000111110001 "!
b10011101111100011011001000010110 *!
b11000101011110110110100011111011 )!
b10010000100111001111010111001001 (!
b101100101010110001010010101010 '!
b1111010110110010110001010010000 &!
b11110011110111010110110000111111 %!
b1010001001001011000110101010 $!
b1001000100111111100001001111110 #!
b110 e
b111 f
b11111110110111000100110101000011 .!
b1001010100111011110000000111110 -!
b10101011011110111110111011101101 5!
b1101000011111010110110000100110 /!
b11000001110110000111110011011001 ,!
b100100010011111110000100111111000001010001001001011000110101010111100111101110101101100001111110111101011011001011000101001000000101100101010110001010010101010100100001001110011110101110010011100010101111011011010001111101110011101111100011011001000010110 7!
b1010110011001101010101101100111 2!
b11010001010000000000110111110111 5!
b1101110011000111110000110001000 6!
b100010001110001010110100000110 2!
b1001001011110100010110110000001 3!
b10011101000100100000111110010110 5!
b1101011101100101101101010000111 6!
#520
0#
0,
#540
1#
1,
b1 g!
b10 g!
b11 g!
b100 g!
b101 g!
b110 g!
b111 g!
b1000 g!
b1001 g!
b1010 g!
b1011 g!
b1100 g!
b1101 g!
b1110 g!
b1111 g!
b10000 g!
b10001 g!
b10010 g!
b10011 g!
b10100 g!
b10101 g!
b10110 g!
b10111 g!
b11000 g!
b11001 g!
b11010 g!
b11011 g!
b11100 g!
b11101 g!
b11110 g!
b11111 g!
b100000 g!
b0 N!
b1000000000 O!
b0 ]!
b10000000000000000000000000000000 ^!
b101100010101001111000 _!
b1000 E!
b10010010001111111000001010100100 "!
b11000101011110110110100011111011 *!
b10010000100111001111010111001001 )!
b101100101010110001010010101010 (!
b10011101000100100000111110010110 '!
b11110011110111010110110000111111 &!
b1010001001001011000110101010 %!
b1001000100111111100001001111110 $!
b1101011101100101101101010000111 #!
b111 e
b1000 f
b11000101101111011111011010011001 .!
b1001010101101101101001010101110 -!
b10110000101100001100101000101 5!
b100001101000000010000100110001 /!
b1100100011101111010011001011 ,!
b110101110110010110110101000011101001000100111111100001001111110000010100010010010110001101010101111001111011101011011000011111110011101000100100000111110010110001011001010101100010100101010101001000010011100111101011100100111000101011110110110100011111011 7!
b10000010000100001101010010011110 2!
b1110101111011100100000011011101 5!
b11001011100010110000001000011111 6!
b10000101111010100000000110011011 2!
b10000011101001100100101000111 3!
b1111001110001110110110111011010 5!
b10010110010111101100101011100010 6!
#560
0#
0,
#580
1#
1,
b1 g!
b10 g!
b11 g!
b100 g!
b101 g!
b110 g!
b111 g!
b1000 g!
b1001 g!
b1010 g!
b1011 g!
b1100 g!
b1101 g!
b1110 g!
b1111 g!
b10000 g!
b10001 g!
b10010 g!
b10011 g!
b10100 g!
b10101 g!
b10110 g!
b10111 g!
b11000 g!
b11001 g!
b11010 g!
b11011 g!
b11100 g!
b11101 g!
b11110 g!
b11111 g!
b100000 g!
b0 O!
b1000000000 P!
b0 ^!
b10000000000000000000000000000000 _!
b101100010101001111000 `!
b1001 E!
b10101011000111000101111011010101 "!
b10010000100111001111010111001001 *!
b101100101010110001010010101010 )!
b10011101000100100000111110010110 (!
b1111001110001110110110111011010 '!
b1010001001001011000110101010 &!
b1001000100111111100001001111110 %!
b1101011101100101101101010000111 $!
b10010110010111101100101011100010 #!
b1000 e
b1001 f
b10001001101010001000101000010111 .!
b1001010100111101100101011100110 -!
b10010000000011101011001101000101 5!
b110001000111101100100001100110 /!
b11101001010100001110110110010 ,!
b1001011001011110110010101110001001101011101100101101101010000111010010001001111111000010011111100000101000100100101100011010101001111001110001110110110111011010100111010001001000001111100101100010110010101011000101001010101010010000100111001111010111001001 7!
b1101001111010000110101010011010 2!
b1110100000011010001110001000100 5!
b1111010010111010011001111100001 6!
b10001010000000100011101010110110 2!
b11010100010001110101010011111101 3!
b10010100001001101110110001100000 5!
b1011110010010011000111110110011 6!
#600
0#
0,
#620
1#
1,
b1 g!
b10 g!
b11 g!
b100 g!
b101 g!
b110 g!
b111 g!
b1000 g!
b1001 g!
b1010 g!
b1011 g!
b1100 g!
b1101 g!
b1110 g!
b1111 g!
b10000 g!
b10001 g!
b10010 g!
b10011 g!
b10100 g!
b10101 g!
b10110 g!
b10111 g!
b11000 g!
b11001 g!
b11010 g!
b11011 g!
b11100 g!
b11101 g!
b11110 g!
b11111 g!
b100000 g!
b0 P!
b1000000000 Q!
b0 _!
b10000000000000000000000000000000 `!
b101100010101001111000 a!
b1010 E!
b11011000000001111010101010011000 "!
b101100101010110001010010101010 *!
b10011101000100100000111110010110 )!
b1111001110001110110110111011010 (!
b10010100001001101110110001100000 '!
b1001000100111111100001001111110 &!
b1101011101100101101101010000111 %!
b10010110010111101100101011100010 $!
b1011110010010011000111110110011 #!
b1001 e
b1010 f
b10001100001101100101110011011001 .!
b1011110010110101100101010100011 -!
b11010010101000011111110100110100 5!
b11101001101000010111100100110 /!
b11001000101100110111111010110 ,!
b101111001001001100011111011001110010110010111101100101011100010011010111011001011011010100001110100100010011111110000100111111010010100001001101110110001100000011110011100011101101101110110101001110100010010000011111001011000101100101010110001010010101010 7!
b1010010111110111010010101011010 2!
b10011011100110110110011111011000 5!
b100111010000101111101001010111 6!
b111010111111010101111000111110 2!
b11101010100100010010011101111100 3!
b10000011100111010010000010111100 5!
b100101100011101000010110111010 6!
#640
0#
0,
#660
1#
1,
b1 g!
b10 g!
b11 g!
b100 g!
b101 g!
b110 g!
b111 g!
b1000 g!
b1001 g!
b1010 g!
b1011 g!
b1100 g!
b1101 g!
b1110 g!
b1111 g!
b10000 g!
b10001 g!
b10010 g!
b10011 g!
b10100 g!
b10101 g!
b10110 g!
b10111 g!
b11000 g!
b11001 g!
b11010 g!
b11011 g!
b11100 g!
b11101 g!
b11110 g!
b11111 g!
b100000 g!
b0 Q!
b1000000000 R!
b0 `!
b10000000000000000000000000000000 a!
b101100010101001111000 b!
b1011 E!
b10010100000110101101100000001 "!
b10011101000100100000111110010110 *!
b1111001110001110110110111011010 )!
b10010100001001101110110001100000 (!
b10000011100111010010000010111100 '!
b1101011101100101101101010000111 &!
b10010110010111101100101011100010 %!
b1011110010010011000111110110011 $!
b100101100011101000010110111010 #!
b1010 e
b1011 f
b10011110101001000110010110001100 .!
b10110010011101000111110110010 -!
b10100110101100000011100011000101 5!
b101011000011100101100101100111 /!
b11111000010001100110110101100010 ,!
b10010110001110100001011011101001011110010010011000111110110011100101100101111011001010111000100110101110110010110110101000011110000011100111010010000010111100100101000010011011101100011000000111100111000111011011011101101010011101000100100000111110010110 7!
b11100101111000000000100110010011 2!
b1010001100100101110010000011010 5!
b11010000011100010011000100001111 6!
b11010010111010100011000101100000 2!
b10110100111100101111010100111110 3!
b111110100111010000101111100111 5!
b10000111110111010010011010011110 6!
#680
0#
0,
