POCA_FSM/dump.vcd
$date
    Nov  5, 2023  12:11:28
$end
$version
    TOOL:	xmsim	21.03-s015
$end
$timescale
    1 ps
$end

$scope module tb_poca_master $end
$var parameter 32 !    address_bus_size $end
$var parameter 32 "    data_bus_size $end
$var parameter 32 #    total_number_byte_size $end
$var parameter 32 $    enable_data_out_size $end
$var parameter 32 %    ecc_mult_input_size $end
$var parameter 32 &    ECC_input_size $end
$var parameter 32 '    test_response_size $end
$var parameter 32 (    KS_value_size $end
$var parameter 32 )    P_value_size $end
$var parameter 32 *    capture_count_size $end
$var parameter 32 +    TRNG_output_size $end
$var parameter 32 ,    Private_key_chip_size $end
$var parameter 32 -    hash_output_size $end
$var parameter 32 .    ecc_output_size $end
$var parameter 32 /    TRNG_write_base_addr $end
$var parameter 32 0    TRNG_read_base_addr $end
$var parameter 32 1    ECC_write_base_addr $end
$var parameter 32 2    ECC_read_base_addr $end
$var parameter 32 3    Hash_write_base_addr $end
$var parameter 32 4    Hash_read_base_addr $end
$var reg      32 5    generator_mult [31:0] $end
$var reg      32 6    test_response [31:0] $end
$var reg       1 7    clk $end
$var reg       1 8    go $end
$var reg       1 9    rstn $end
$var reg       4 :    KS_value [3:0] $end
$var reg       1 ;    write_complete $end
$var reg      32 <    data_in [31:0] $end
$var reg       1 =    data_input_ready $end
$var reg       1 >    hsm_key_received $end
$var reg      256 ?    hsm_public_key [255:0] $end
$var reg       1 @    input_data_transfer_complete $end
$var wire      1 A    capture_cntl  $end
$var wire     768 B    poca_output_response [767:0] $end
$var wire     32 C    addr_out [31:0] $end
$var wire      1 D    is_write  $end
$var wire     32 E    enable_data_out [31:0] $end
$var wire     128 F    ecc_input_1 [127:0] $end
$var wire     128 G    ecc_input_2 [127:0] $end
$var wire     32 H    hash_input_r [31:0] $end
$var wire     324 I    hash_input_g_p_qa_r [323:0] $end
$var wire      1 J    shared_secret_key_ready  $end
$var wire      1 K    poca_output_ready  $end

$scope module UUT $end
$var parameter 32 L    address_bus_size $end
$var parameter 32 M    data_bus_size $end
$var parameter 32 N    total_number_byte_size $end
$var parameter 32 O    enable_data_out_size $end
$var parameter 32 P    ecc_mult_input_size $end
$var parameter 32 Q    ECC_input_size $end
$var parameter 32 R    test_response_size $end
$var parameter 32 S    KS_value_size $end
$var parameter 32 T    P_value_size $end
$var parameter 32 U    capture_count_size $end
$var parameter 32 V    TRNG_output_size $end
$var parameter 32 W    Private_key_chip_size $end
$var parameter 32 X    hash_output_size $end
$var parameter 32 Y    ecc_output_size $end
$var parameter 32 Z    TRNG_write_base_addr $end
$var parameter 32 [    TRNG_read_base_addr $end
$var parameter 32 \    ECC_write_base_addr $end
$var parameter 32 ]    ECC_read_base_addr $end
$var parameter 32 ^    Hash_write_base_addr $end
$var parameter 32 _    Hash_read_base_addr $end
$var wire     32 `    generator_mult [31:0] $end
$var wire     32 a    test_response [31:0] $end
$var wire      1 b    clk  $end
$var wire      1 c    go  $end
$var wire      1 d    rstn  $end
$var wire      4 e    KS_value [3:0] $end
$var wire      1 f    write_complete  $end
$var wire     32 g    data_in [31:0] $end
$var wire      1 h    data_input_ready  $end
$var wire      1 i    hsm_key_received  $end
$var wire     256 j    hsm_public_key [255:0] $end
$var wire      1 k    input_data_transfer_complete  $end
$var reg       1 l    capture_cntl $end
$var reg      768 m    poca_output_response [767:0] $end
$var reg      32 n    addr_out [31:0] $end
$var reg       1 o    is_write $end
$var reg      32 p    enable_data_out [31:0] $end
$var reg      128 q    ecc_input_1 [127:0] $end
$var reg      128 r    ecc_input_2 [127:0] $end
$var reg      32 s    hash_input_r [31:0] $end
$var reg      324 t    hash_input_g_p_qa_r [323:0] $end
$var reg       1 u    shared_secret_key_ready $end
$var reg       1 v    poca_output_ready $end
$var reg      16 w    cnt [15:0] $end
$var reg       1 x    capture_en $end
$var reg       1 y    capture_count_done $end
$var reg      128 z    private_key_chip [127:0] $end
$var reg       1 {    private_key_ready $end
$var reg      32 |    generator_reg [31:0] $end
$var reg       4 }    KS_value_reg [3:0] $end
$var reg       1 ~    p_value_ready $end
$var reg      32 !!   test_response_reg [31:0] $end
$var reg       1 "!   hash_R_ready $end
$var reg      256 #!   hash_R_reg [255:0] $end
$var reg       1 $!   ecc_mult_ready $end
$var reg      256 %!   public_key_chip [255:0] $end
$var reg       1 &!   hash_combination_ready $end
$var reg      256 '!   hash_g_p_qa_r [255:0] $end
$var reg      256 (!   hsm_public_key_reg [255:0] $end
$var reg       1 )!   secret_key_ready $end
$var reg      256 *!   secret_key_chip [255:0] $end
$var reg       1 +!   test_response_ready $end
$var reg      32 ,!   counter_scan_shift [31:0] $end
$var reg      128 -!   P_value_trng_reg [127:0] $end
$var reg       1 .!   ecc_write_wait_additional_cycle $end
$var reg       1 /!   ecc_write_wait_additional_cycle_cntl $end
$var reg       4 0!   state [3:0] $end
$var reg       4 1!   next_state [3:0] $end
$var wire     324 2!   combination__g_p_qa_r [323:0] $end
$var parameter  4 3!   IDLE $end
$var parameter  4 4!   TRNG_write $end
$var parameter  4 5!   TRNG_read $end
$var parameter  4 6!   ECC_write $end
$var parameter  4 7!   TRNG_write_p $end
$var parameter  4 8!   TRNG_read_p $end
$var parameter  4 9!   Capture_wait $end
$var parameter  4 :!   Hash_write $end
$var parameter  4 ;!   Hash_read $end
$var parameter  4 <!   ECC_read $end
$var parameter  4 =!   Hash_write_1 $end
$var parameter  4 >!   Hash_read_1 $end
$var parameter  4 ?!   Output_poca $end
$var parameter  4 @!   ECC_write_secret_key $end
$var parameter  4 A!   ECC_read_secret_key $end
$var parameter  4 B!   Done_FSM $end
$upscope $end

$upscope $end

$enddefinitions $end
$dumpvars
b1111 B!
b1110 A!
b1101 @!
b1100 ?!
b1011 >!
b1010 =!
b1001 <!
b1000 ;!
b111 :!
b110 9!
b101 8!
b100 7!
b11 6!
b10 5!
b1 4!
b0 3!
b11111010000 _
b11001000000 ^
b10010110000 ]
b1100100000 \
b110010000 [
b0 Z
b100000000 Y
b100000000 X
b10000000 W
b10000000 V
b10000 U
b100 T
b100 S
b100000 R
b10000000 Q
b100000 P
b100000 O
b1000 N
b100000 M
b100000 L
b11111010000 4
b11001000000 3
b10010110000 2
b1100100000 1
b110010000 0
b0 /
b100000000 .
b100000000 -
b10000000 ,
b10000000 +
b10000 *
b100 )
b100 (
b100000 '
b10000000 &
b100000 %
b100000 $
b1000 #
b100000 "
b100000 !
b10010001101000101011001111000 5
b10010001101000101011001111000 6
17
08
09
b101 :
0;
b0 <
0=
0>
b0 ?
0@
0A
b0 B
b0 C
0D
b0 E
b0 F
b0 G
b0 H
b0 I
0J
0K
b10010001101000101011001111000 `
b10010001101000101011001111000 a
1b
0c
0d
b101 e
0f
b0 g
0h
0i
b0 j
0k
0l
b0 m
b0 n
0o
b0 p
b0 q
b0 r
b0 s
b0 t
0u
0v
b0 w
0x
0y
b0 z
0{
b0 |
b0 }
0~
b0 !!
0"!
b0 #!
0$!
b0 %!
0&!
b0 '!
b0 (!
0)!
b0 *!
0+!
b0 ,!
b0 -!
0.!
0/!
b0 0!
b0 1!
b0 2!
$end
#10000
07
0b
#20000
17
1b
#30000
07
0b
#40000
19
17
1b
1d
b1010000 w
b10010001101000101011001111000 !!
b10010001101000101011001111000 |
b101 }
b100100011010001010110011110000000000000000000000000000000000000000000000000000000000000000000000000000000000000000000000000000000000000000000000000000000000000000000000000000000000000000000000000000000000000000000000000000000000000000000000000000000000000000000000000000000000000000000000000010010001101000101011001111000 2!
#50000
07
0b
#60000
17
1b
#70000
07
0b
#80000
18
17
1b
1c
b1 1!
#90000
07
0b
#100000
17
1b
b1 0!
b1 p
1o
1D
b1 E
#110000
07
0b
#120000
17
1b
#130000
07
0b
#140000
17
1b
#150000
07
0b
#160000
17
1b
#170000
07
0b
#180000
1;
17
1b
1f
b0 p
0o
b1 p
1o
b10 1!
#190000
07
0b
#200000
0;
17
1b
0f
b0 p
0o
b1 1!
b1 p
1o
b10 0!
b0 p
0o
b10 1!
b110010000 n
b110010000 C
0D
b0 E
#210000
07
0b
#220000
17
1b
#230000
07
0b
#240000
17
1b
#250000
07
0b
#260000
17
1b
#270000
07
0b
#280000
17
1b
#290000
07
0b
#300000
1=
b10101 <
17
1b
b10101 g
1h
b0 n
b110010000 n
1{
#310000
07
0b
#320000
b0 <
17
1b
b0 g
#330000
07
0b
#340000
b10101 <
17
1b
b10101 g
b10101000000000000000000000000000000000000000000000000000000000000000000000000000000000000000000000000 z
b0 n
0{
b110010000 n
1{
#350000
07
0b
#360000
b1 <
17
1b
b1 g
b1000000000000000000000000000101010000000000000000000000000000000000000000000000000000000000000000 z
b0 n
0{
b110010000 n
1{
#370000
07
0b
#380000
1@
0=
17
1b
0h
1k
b0 n
0{
b110010000 n
b11 1!
b1000000000000000000000000000000010000000000000000000000000001010100000000000000000000000000000000 z
b0 n
b10 1!
b110010000 n
b11 1!
#390000
07
0b
#400000
0@
17
1b
0k
b0 n
b10 1!
b110010000 n
b11 0!
b0 n
b11 1!
b1100100000 n
b1 p
b10010001101000101011001111000 q
b1000000000000000000000000000000010000000000000000000000000001010100000000000000000000000000000000 r
1o
1D
b1000000000000000000000000000000010000000000000000000000000001010100000000000000000000000000000000 G
b10010001101000101011001111000 F
b1 E
b1100100000 C
#410000
07
0b
#420000
17
1b
#430000
07
0b
#440000
17
1b
#450000
07
0b
#460000
17
1b
#470000
07
0b
#480000
1;
17
1b
1f
b0 n
b0 p
0o
b0 q
b0 r
b1100100000 n
b1 p
b10010001101000101011001111000 q
b1000000000000000000000000000000010000000000000000000000000001010100000000000000000000000000000000 r
1o
1/!
#490000
07
0b
#500000
0;
17
1b
0f
b0 n
b0 p
0o
b0 q
b0 r
0/!
b1100100000 n
b1 p
b10010001101000101011001111000 q
b1000000000000000000000000000000010000000000000000000000000001010100000000000000000000000000000000 r
1o
1.!
b0 n
b0 p
0o
b0 q
b0 r
b1100100000 n
b1 p
b10010001101000101011001111000 q
b1000000000000000000000000000000010000000000000000000000000001010100000000000000000000000000000000 r
1o
b100 1!
#510000
07
0b
#520000
17
1b
b100 0!
b0 n
b0 p
0o
b0 q
b0 r
b1 p
1o
b0 G
b0 F
b0 C
#530000
07
0b
#540000
17
1b
#550000
07
0b
#560000
17
1b
#570000
07
0b
#580000
17
1b
#590000
07
0b
#600000
1;
17
1b
1f
b0 p
0o
b1 p
1o
b101 1!
#610000
07
0b
#620000
0;
17
1b
0f
b0 p
0o
b100 1!
b1 p
1o
b101 0!
b0 p
0o
b101 1!
b110010000 n
b110010000 C
0D
b0 E
#630000
07
0b
#640000
17
1b
#650000
07
0b
#660000
17
1b
#670000
07
0b
#680000
17
1b
#690000
07
0b
#700000
17
1b
#710000
07
0b
#720000
1=
b10101 <
17
1b
b10101 g
1h
b0 n
b110010000 n
1~
#730000
07
0b
#740000
b0 <
17
1b
b0 g
#750000
07
0b
#760000
b10101 <
17
1b
b10101 g
b10101000000000000000000000000000000000000000000000000000000000000000000000000000000000000000000000000 -!
#770000
07
0b
#780000
b1 <
17
1b
b1 g
b1000000000000000000000000000101010000000000000000000000000000000000000000000000000000000000000000 -!
#790000
07
0b
#800000
0=
1@
17
1b
1k
0h
b0 n
0~
b110010000 n
b110 1!
b1000000000000000000000000000000010000000000000000000000000001010100000000000000000000000000000000 -!
#810000
07
0b
#820000
0@
17
1b
0k
b0 n
b101 1!
b110010000 n
b110 0!
b0 n
b110 1!
1x
b0 C
#830000
07
0b
#840000
17
1b
1l
b1001111 w
1A
#850000
07
0b
#860000
17
1b
b1001110 w
#870000
07
0b
#880000
17
1b
b1001101 w
#890000
07
0b
#900000
17
1b
b1001100 w
#910000
07
0b
#920000
17
1b
b1001011 w
#930000
07
0b
#940000
17
1b
b1001010 w
#950000
07
0b
#960000
17
1b
b1001001 w
#970000
07
0b
#980000
17
1b
b1001000 w
#990000
07
0b
#1000000
17
1b
b1000111 w
#1010000
07
0b
#1020000
17
1b
b1000110 w
#1030000
07
0b
#1040000
17
1b
b1000101 w
#1050000
07
0b
#1060000
17
1b
b1000100 w
#1070000
07
0b
#1080000
17
1b
b1000011 w
#1090000
07
0b
#1100000
17
1b
b1000010 w
#1110000
07
0b
#1120000
17
1b
b1000001 w
#1130000
07
0b
#1140000
17
1b
b1000000 w
#1150000
07
0b
#1160000
17
1b
b111111 w
#1170000
07
0b
#1180000
17
1b
b111110 w
#1190000
07
0b
#1200000
17
1b
b111101 w
#1210000
07
0b
#1220000
17
1b
b111100 w
#1230000
07
0b
#1240000
17
1b
b111011 w
#1250000
07
0b
#1260000
17
1b
b111010 w
#1270000
07
0b
#1280000
17
1b
b111001 w
#1290000
07
0b
#1300000
17
1b
b111000 w
#1310000
07
0b
#1320000
17
1b
b110111 w
#1330000
07
0b
#1340000
17
1b
b110110 w
#1350000
07
0b
#1360000
17
1b
b110101 w
#1370000
07
0b
#1380000
17
1b
b110100 w
#1390000
07
0b
#1400000
17
1b
b110011 w
#1410000
07
0b
#1420000
17
1b
b110010 w
#1430000
07
0b
#1440000
17
1b
b110001 w
#1450000
07
0b
#1460000
17
1b
b110000 w
#1470000
07
0b
#1480000
17
1b
b101111 w
#1490000
07
0b
#1500000
17
1b
b101110 w
#1510000
07
0b
#1520000
17
1b
b101101 w
#1530000
07
0b
#1540000
17
1b
b101100 w
#1550000
07
0b
#1560000
17
1b
b101011 w
#1570000
07
0b
#1580000
17
1b
b101010 w
#1590000
07
0b
#1600000
17
1b
b101001 w
#1610000
07
0b
#1620000
17
1b
b101000 w
#1630000
07
0b
#1640000
17
1b
b100111 w
#1650000
07
0b
#1660000
17
1b
b100110 w
#1670000
07
0b
#1680000
17
1b
b100101 w
#1690000
07
0b
#1700000
17
1b
b100100 w
#1710000
07
0b
#1720000
17
1b
b100011 w
#1730000
07
0b
#1740000
17
1b
b100010 w
#1750000
07
0b
#1760000
17
1b
b100001 w
#1770000
07
0b
#1780000
17
1b
b100000 w
#1790000
07
0b
#1800000
17
1b
b11111 w
#1810000
07
0b
#1820000
17
1b
b11110 w
#1830000
07
0b
#1840000
17
1b
b11101 w
#1850000
07
0b
#1860000
17
1b
b11100 w
#1870000
07
0b
#1880000
17
1b
b11011 w
#1890000
07
0b
#1900000
17
1b
b11010 w
#1910000
07
0b
#1920000
17
1b
b11001 w
#1930000
07
0b
#1940000
17
1b
b11000 w
#1950000
07
0b
#1960000
17
1b
b10111 w
#1970000
07
0b
#1980000
17
1b
b10110 w
#1990000
07
0b
#2000000
17
1b
b10101 w
#2010000
07
0b
#2020000
17
1b
b10100 w
#2030000
07
0b
#2040000
17
1b
b10011 w
#2050000
07
0b
#2060000
17
1b
b10010 w
#2070000
07
0b
#2080000
17
1b
b10001 w
#2090000
07
0b
#2100000
17
1b
b10000 w
#2110000
07
0b
#2120000
17
1b
b1111 w
#2130000
07
0b
#2140000
17
1b
b1110 w
#2150000
07
0b
#2160000
17
1b
b1101 w
#2170000
07
0b
#2180000
17
1b
b1100 w
#2190000
07
0b
#2200000
17
1b
b1011 w
#2210000
07
0b
#2220000
17
1b
b1010 w
#2230000
07
0b
#2240000
17
1b
b1001 w
#2250000
07
0b
#2260000
17
1b
b1000 w
#2270000
07
0b
#2280000
17
1b
b111 w
#2290000
07
0b
#2300000
17
1b
b110 w
#2310000
07
0b
#2320000
17
1b
b101 w
#2330000
07
0b
#2340000
17
1b
b100 w
#2350000
07
0b
#2360000
17
1b
b11 w
#2370000
07
0b
#2380000
17
1b
b10 w
#2390000
07
0b
#2400000
17
1b
b1 w
#2410000
07
0b
#2420000
17
1b
b0 w
#2430000
07
0b
#2440000
17
1b
0l
1y
0A
#2450000
07
0b
#2460000
17
1b
b1 ,!
#2470000
07
0b
#2480000
17
1b
b10 ,!
#2490000
07
0b
#2500000
17
1b
b11 ,!
#2510000
07
0b
#2520000
17
1b
b100 ,!
#2530000
07
0b
#2540000
17
1b
b101 ,!
#2550000
07
0b
#2560000
17
1b
b110 ,!
#2570000
07
0b
#2580000
17
1b
b111 ,!
#2590000
07
0b
#2600000
17
1b
b1000 ,!
#2610000
07
0b
#2620000
17
1b
b1001 ,!
#2630000
07
0b
#2640000
17
1b
b1010 ,!
#2650000
07
0b
#2660000
17
1b
b1011 ,!
#2670000
07
0b
#2680000
17
1b
b1100 ,!
#2690000
07
0b
#2700000
17
1b
b1101 ,!
#2710000
07
0b
#2720000
17
1b
b1110 ,!
#2730000
07
0b
#2740000
17
1b
b1111 ,!
#2750000
07
0b
#2760000
17
1b
b10000 ,!
#2770000
07
0b
#2780000
17
1b
b10001 ,!
#2790000
07
0b
#2800000
17
1b
b10010 ,!
#2810000
07
0b
#2820000
17
1b
b10011 ,!
#2830000
07
0b
#2840000
17
1b
b10100 ,!
#2850000
07
0b
#2860000
17
1b
b10101 ,!
#2870000
07
0b
#2880000
17
1b
b10110 ,!
#2890000
07
0b
#2900000
17
1b
b10111 ,!
#2910000
07
0b
#2920000
17
1b
b11000 ,!
#2930000
07
0b
#2940000
17
1b
b11001 ,!
#2950000
07
0b
#2960000
17
1b
b11010 ,!
#2970000
07
0b
#2980000
17
1b
b11011 ,!
#2990000
07
0b
#3000000
17
1b
b11100 ,!
#3010000
07
0b
#3020000
17
1b
b11101 ,!
#3030000
07
0b
#3040000
17
1b
b11110 ,!
#3050000
07
0b
#3060000
17
1b
b11111 ,!
#3070000
07
0b
#3080000
17
1b
b100000 ,!
#3090000
07
0b
#3100000
17
1b
b0 ,!
1+!
0x
1x
b111 1!
#3110000
07
0b
#3120000
17
1b
b111 0!
b1 ,!
0x
b11001000000 n
b1 p
b10010001101000101011001111000 s
1o
1D
b10010001101000101011001111000 H
b1 E
b11001000000 C
#3130000
07
0b
#3140000
17
1b
b10 ,!
b1010000 w
#3150000
07
0b
#3160000
17
1b
b11 ,!
#3170000
07
0b
#3180000
17
1b
b100 ,!
#3190000
07
0b
#3200000
17
1b
b101 ,!
#3210000
07
0b
#3220000
17
1b
b110 ,!
#3230000
07
0b
#3240000
17
1b
b111 ,!
#3250000
07
0b
#3260000
1;
17
1b
1f
b0 n
b0 p
0o
b0 s
b11001000000 n
b1 p
b10010001101000101011001111000 s
1o
b1000 1!
b1000 ,!
#3270000
07
0b
#3280000
0;
17
1b
0f
b0 n
b0 p
0o
b111 1!
b0 s
b11001000000 n
b1 p
b10010001101000101011001111000 s
1o
b1000 0!
b1001 ,!
b0 n
b0 p
0o
b1000 1!
b0 s
b11111010000 n
b0 H
0D
b0 E
b11111010000 C
#3290000
07
0b
#3300000
17
1b
b1010 ,!
#3310000
07
0b
#3320000
17
1b
b1011 ,!
#3330000
07
0b
#3340000
17
1b
b1100 ,!
#3350000
07
0b
#3360000
17
1b
b1101 ,!
#3370000
07
0b
#3380000
1=
b11111 <
17
1b
b11111 g
1h
b0 n
b11111010000 n
1"!
b1110 ,!
#3390000
07
0b
#3400000
b1 <
17
1b
b1 g
b100000000000000000000000000000000000000000000000000000000000000000000000000000000000000000000000000000000000000000000000000000000000000000000000000000000000000000000000000000000000000000000000000000000000000000000000000000000 #!
b1111 ,!
b0 n
0"!
b11111010000 n
1"!
#3410000
07
0b
#3420000
b10101 <
17
1b
b10101 g
b1010100000000000000000000000000000001000000000000000000000000000000000000000000000000000000000000000000000000000000000000000000000000000000000000000000000000000000000000000000000000000000000000000000000000000000000000000000000000 #!
b10000 ,!
b0 n
0"!
b11111010000 n
1"!
#3430000
07
0b
#3440000
b101 <
17
1b
b101 g
b10100000000000000000000000000010101000000000000000000000000000000010000000000000000000000000000000000000000000000000000000000000000000000000000000000000000000000000000000000000000000000000000000000000000000000000000000000000000 #!
b10001 ,!
b0 n
0"!
b11111010000 n
1"!
#3450000
07
0b
#3460000
17
1b
b10100000000000000000000000000000101000000000000000000000000000101010000000000000000000000000000000100000000000000000000000000000000000000000000000000000000000000000000000000000000000000000000000000000000000000000000000000000000 #!
b10010 ,!
b0 n
0"!
b11111010000 n
1"!
#3470000
07
0b
#3480000
17
1b
b10100000000000000000000000000000101000000000000000000000000000001010000000000000000000000000001010100000000000000000000000000000001000000000000000000000000000000000000000000000000000000000000000000000000000000000000000000000000 #!
b10011 ,!
b0 n
0"!
b11111010000 n
1"!
#3490000
07
0b
#3500000
17
1b
b10100000000000000000000000000000101000000000000000000000000000001010000000000000000000000000000010100000000000000000000000000010101000000000000000000000000000000010000000000000000000000000000000000000000000000000000000000000000 #!
b10100 ,!
b0 n
0"!
b11111010000 n
1"!
#3510000
07
0b
#3520000
17
1b
b10100000000000000000000000000000101000000000000000000000000000001010000000000000000000000000000010100000000000000000000000000000101000000000000000000000000000101010000000000000000000000000000000100000000000000000000000000000000 #!
b10101 ,!
b0 n
0"!
b11111010000 n
1"!
#3530000
07
0b
#3540000
0=
1@
17
1b
1k
0h
b0 n
0"!
b11111010000 n
b1001 1!
b10100000000000000000000000000000101000000000000000000000000000001010000000000000000000000000000010100000000000000000000000000000101000000000000000000000000000001010000000000000000000000000001010100000000000000000000000000000001 #!
b10110 ,!
b0 n
b1000 1!
b11111010000 n
b1001 1!
#3550000
07
0b
#3560000
0@
17
1b
0k
b0 n
b1000 1!
b11111010000 n
b1001 0!
b10111 ,!
b0 n
b1001 1!
b10010110000 n
b10010110000 C
#3570000
07
0b
#3580000
17
1b
b11000 ,!
#3590000
07
0b
#3600000
17
1b
b11001 ,!
#3610000
07
0b
#3620000
17
1b
b11010 ,!
#3630000
07
0b
#3640000
17
1b
b11011 ,!
#3650000
07
0b
#3660000
1=
b11111 <
17
1b
b11111 g
1h
b0 n
b10010110000 n
1$!
b11100 ,!
#3670000
07
0b
#3680000
b1 <
17
1b
b1 g
b100000000000000000000000000000000000000000000000000000000000000000000000000000000000000000000000000000000000000000000000000000000000000000000000000000000000000000000000000000000000000000000000000000000000000000000000000000000 %!
b11101 ,!
b0 n
0$!
b10010110000 n
1$!
b100100011010001010110011110000000000000000000000000000000000000010000000000000000000000000000000000000000000000000000000000000000000000000000000000000000000000000000000000000000000000000000000000000000000000000000000000000000000000000000000000000000000000000000000000000000000000000000000000010010001101000101011001111000 2!
b0 n
0$!
b10010110000 n
1$!
#3690000
07
0b
#3700000
b10101 <
17
1b
b10101 g
b1010100000000000000000000000000000001000000000000000000000000000000000000000000000000000000000000000000000000000000000000000000000000000000000000000000000000000000000000000000000000000000000000000000000000000000000000000000000000 %!
b11110 ,!
b0 n
0$!
b10010110000 n
1$!
b100100011010001010110011110000000000000000000000000000000000101010000000000000000000000000000000100000000000000000000000000000000000000000000000000000000000000000000000000000000000000000000000000000000000000000000000000000000000000000000000000000000000000000000000000000000000000000000000000010010001101000101011001111000 2!
b0 n
0$!
b10010110000 n
1$!
#3710000
07
0b
#3720000
b101 <
17
1b
b101 g
b10100000000000000000000000000010101000000000000000000000000000000010000000000000000000000000000000000000000000000000000000000000000000000000000000000000000000000000000000000000000000000000000000000000000000000000000000000000000 %!
b11111 ,!
b0 n
0$!
b10010110000 n
1$!
b100100011010001010110011110000000000000000000000000000000000001010000000000000000000000000001010100000000000000000000000000000001000000000000000000000000000000000000000000000000000000000000000000000000000000000000000000000000000000000000000000000000000000000000000000000000000000000000000000010010001101000101011001111000 2!
b0 n
0$!
b10010110000 n
1$!
#3730000
07
0b
#3740000
17
1b
b10100000000000000000000000000000101000000000000000000000000000101010000000000000000000000000000000100000000000000000000000000000000000000000000000000000000000000000000000000000000000000000000000000000000000000000000000000000000 %!
b100000 ,!
b0 n
0$!
b10010110000 n
1$!
b100100011010001010110011110000000000000000000000000000000000001010000000000000000000000000000010100000000000000000000000000010101000000000000000000000000000000010000000000000000000000000000000000000000000000000000000000000000000000000000000000000000000000000000000000000000000000000000000000010010001101000101011001111000 2!
b0 n
0$!
b10010110000 n
1$!
#3750000
07
0b
#3760000
17
1b
b10100000000000000000000000000000101000000000000000000000000000001010000000000000000000000000001010100000000000000000000000000000001000000000000000000000000000000000000000000000000000000000000000000000000000000000000000000000000 %!
b0 ,!
b0 n
0$!
b10010110000 n
1$!
b100100011010001010110011110000000000000000000000000000000000001010000000000000000000000000000010100000000000000000000000000000101000000000000000000000000000101010000000000000000000000000000000100000000000000000000000000000000000000000000000000000000000000000000000000000000000000000000000000010010001101000101011001111000 2!
b0 n
0$!
b10010110000 n
1$!
#3770000
07
0b
#3780000
17
1b
b10100000000000000000000000000000101000000000000000000000000000001010000000000000000000000000000010100000000000000000000000000010101000000000000000000000000000000010000000000000000000000000000000000000000000000000000000000000000 %!
b1 ,!
b0 n
0$!
b10010110000 n
1$!
b100100011010001010110011110000000000000000000000000000000000001010000000000000000000000000000010100000000000000000000000000000101000000000000000000000000000001010000000000000000000000000001010100000000000000000000000000000001000000000000000000000000000000000000000000000000000000000000000000010010001101000101011001111000 2!
b0 n
0$!
b10010110000 n
1$!
#3790000
07
0b
#3800000
b111 <
17
1b
b111 g
b11100000000000000000000000000000101000000000000000000000000000001010000000000000000000000000000010100000000000000000000000000000101000000000000000000000000000101010000000000000000000000000000000100000000000000000000000000000000 %!
b10 ,!
b0 n
0$!
b10010110000 n
1$!
b100100011010001010110011110000000000000000000000000000000000001110000000000000000000000000000010100000000000000000000000000000101000000000000000000000000000001010000000000000000000000000000010100000000000000000000000000010101000000000000000000000000000000010000000000000000000000000000000000010010001101000101011001111000 2!
b0 n
0$!
b10010110000 n
1$!
#3810000
07
0b
#3820000
0=
1@
17
1b
1k
0h
b0 n
0$!
b10010110000 n
b1010 1!
b11100000000000000000000000000000111000000000000000000000000000001010000000000000000000000000000010100000000000000000000000000000101000000000000000000000000000001010000000000000000000000000001010100000000000000000000000000000001 %!
b11 ,!
b0 n
b1001 1!
b10010110000 n
b1010 1!
b100100011010001010110011110000000000000000000000000000000000001110000000000000000000000000000011100000000000000000000000000000101000000000000000000000000000001010000000000000000000000000000010100000000000000000000000000000101000000000000000000000000000101010000000000000000000000000000000100010010001101000101011001111000 2!
b0 n
b1001 1!
b10010110000 n
b1010 1!
#3830000
07
0b
#3840000
0@
17
1b
0k
b0 n
b1001 1!
b10010110000 n
b1010 0!
b100 ,!
b0 n
b1010 1!
b11001000000 n
b1 p
b100100011010001010110011110000000000000000000000000000000000001110000000000000000000000000000011100000000000000000000000000000101000000000000000000000000000001010000000000000000000000000000010100000000000000000000000000000101000000000000000000000000000101010000000000000000000000000000000100010010001101000101011001111000 t
1o
1D
b100100011010001010110011110000000000000000000000000000000000001110000000000000000000000000000011100000000000000000000000000000101000000000000000000000000000001010000000000000000000000000000010100000000000000000000000000000101000000000000000000000000000101010000000000000000000000000000000100010010001101000101011001111000 I
b1 E
b11001000000 C
#3850000
07
0b
#3860000
17
1b
b101 ,!
#3870000
07
0b
#3880000
17
1b
b110 ,!
#3890000
07
0b
#3900000
17
1b
b111 ,!
#3910000
07
0b
#3920000
17
1b
b1000 ,!
#3930000
07
0b
#3940000
1;
17
1b
1f
b0 n
b0 p
0o
b0 t
b11001000000 n
b1 p
b100100011010001010110011110000000000000000000000000000000000001110000000000000000000000000000011100000000000000000000000000000101000000000000000000000000000001010000000000000000000000000000010100000000000000000000000000000101000000000000000000000000000101010000000000000000000000000000000100010010001101000101011001111000 t
1o
b1011 1!
b1001 ,!
#3950000
07
0b
#3960000
0;
17
1b
0f
b0 n
b0 p
0o
b1010 1!
b0 t
b11001000000 n
b1 p
b100100011010001010110011110000000000000000000000000000000000001110000000000000000000000000000011100000000000000000000000000000101000000000000000000000000000001010000000000000000000000000000010100000000000000000000000000000101000000000000000000000000000101010000000000000000000000000000000100010010001101000101011001111000 t
1o
b1011 0!
b1010 ,!
b0 n
b0 p
0o
b1011 1!
b0 t
b11111010000 n
b0 I
0D
b0 E
b11111010000 C
#3970000
07
0b
#3980000
17
1b
b1011 ,!
#3990000
07
0b
#4000000
17
1b
b1100 ,!
#4010000
07
0b
#4020000
17
1b
b1101 ,!
#4030000
07
0b
#4040000
17
1b
b1110 ,!
#4050000
07
0b
#4060000
1=
b11111 <
17
1b
b11111 g
1h
b0 n
b11111010000 n
1&!
b1111 ,!
#4070000
07
0b
#4080000
b1 <
17
1b
b1 g
b100000000000000000000000000000000000000000000000000000000000000000000000000000000000000000000000000000000000000000000000000000000000000000000000000000000000000000000000000000000000000000000000000000000000000000000000000000000 '!
b10000 ,!
b0 n
0&!
b11111010000 n
1&!
#4090000
07
0b
#4100000
b1000000000010101 <
17
1b
b1000000000010101 g
b100000000001010100000000000000000000000000000001000000000000000000000000000000000000000000000000000000000000000000000000000000000000000000000000000000000000000000000000000000000000000000000000000000000000000000000000000000000000000000000000 '!
b10001 ,!
b0 n
0&!
b11111010000 n
1&!
#4110000
07
0b
#4120000
b101 <
17
1b
b101 g
b10100000000000000001000000000010101000000000000000000000000000000010000000000000000000000000000000000000000000000000000000000000000000000000000000000000000000000000000000000000000000000000000000000000000000000000000000000000000 '!
b10010 ,!
b0 n
0&!
b11111010000 n
1&!
#4130000
07
0b
#4140000
17
1b
b10100000000000000000000000000000101000000000000000010000000000101010000000000000000000000000000000100000000000000000000000000000000000000000000000000000000000000000000000000000000000000000000000000000000000000000000000000000000 '!
b10011 ,!
b0 n
0&!
b11111010000 n
1&!
#4150000
07
0b
#4160000
b1000000000000000101 <
17
1b
b1000000000000000101 g
b100000000000000010100000000000000000000000000000101000000000000000000000000000001010000000000000000100000000001010100000000000000000000000000000001000000000000000000000000000000000000000000000000000000000000000000000000000000000000000000000000 '!
b10100 ,!
b0 n
0&!
b11111010000 n
1&!
#4170000
07
0b
#4180000
b101 <
17
1b
b101 g
b10100000000000001000000000000000101000000000000000000000000000001010000000000000000000000000000010100000000000000001000000000010101000000000000000000000000000000010000000000000000000000000000000000000000000000000000000000000000 '!
b10101 ,!
b0 n
0&!
b11111010000 n
1&!
#4190000
07
0b
