POCA_FSM/dump_wrapper.vcd
$date
    Nov 23, 2023  17:33:02
$end
$version
    TOOL:	xmsim	21.03-s015
$end
$timescale
    1 ns
$end

$scope module tb_poca_wrapper $end
$var reg       1 !    clk_i $end
$var reg       1 "    ndmreset_n $end
$var wire     32 #    aw_addr [31:0] $end
$var wire     32 $    ar_addr [31:0] $end
$var wire     32 %    w_data [31:0] $end
$var wire     32 &    r_data [31:0] $end
$var wire      1 '    aw_valid  $end
$var wire      1 (    aw_ready  $end
$var wire      1 )    w_valid  $end
$var wire      1 *    w_ready  $end
$var wire      1 +    b_valid  $end
$var wire      1 ,    b_ready  $end
$var wire      1 -    ar_valid  $end
$var wire      1 .    ar_ready  $end
$var wire      1 /    r_valid  $end
$var wire      1 0    r_ready  $end
$var wire      4 1    w_strb [3:0] $end
$var wire      2 2    b_resp [1:0] $end
$var wire      2 3    r_resp [1:0] $end

$scope module poca_wrapper $end
$var parameter 32 4    address_bus_size $end
$var parameter 32 5    data_bus_size $end
$var parameter 32 6    total_number_byte_size $end
$var parameter 32 7    enable_data_out_size $end
$var parameter 32 8    ecc_mult_input_size $end
$var parameter 32 9    ECC_input_size $end
$var parameter 32 :    test_response_size $end
$var parameter 32 ;    KS_value_size $end
$var parameter 32 <    P_value_size $end
$var parameter 32 =    capture_count_size $end
$var parameter 32 >    TRNG_output_size $end
$var parameter 32 ?    Private_key_chip_size $end
$var parameter 32 @    hash_output_size $end
$var parameter 32 A    ecc_output_size $end
$var parameter 32 B    DRAM_base_addr $end
$var parameter 32 C    TRNG_base_addr $end
$var parameter 32 D    DH_base_addr $end
$var parameter 32 E    HASH_base_addr $end
$var parameter 32 F    GPIO_base_addr $end
$var parameter 32 G    C_M_START_DATA_VALUE $end
$var parameter 32 H    C_M_AXI_ADDR_WIDTH $end
$var parameter 32 I    C_M_AXI_DATA_WIDTH $end
$var wire      1 J    M_AXI_ACLK  $end
$var wire      1 K    M_AXI_ARESETN  $end
$var wire     32 #    M_AXI_AWADDR [31:0] $end
$var wire      3 L    M_AXI_AWPROT [2:0] $end
$var wire      1 '    M_AXI_AWVALID  $end
$var wire      1 (    M_AXI_AWREADY  $end
$var wire     32 %    M_AXI_WDATA [31:0] $end
$var wire      4 1    M_AXI_WSTRB [3:0] $end
$var wire      1 )    M_AXI_WVALID  $end
$var wire      1 *    M_AXI_WREADY  $end
$var wire      2 2    M_AXI_BRESP [1:0] $end
$var wire      1 +    M_AXI_BVALID  $end
$var wire      1 ,    M_AXI_BREADY  $end
$var wire     32 $    M_AXI_ARADDR [31:0] $end
$var wire      3 M    M_AXI_ARPROT [2:0] $end
$var wire      1 -    M_AXI_ARVALID  $end
$var wire      1 .    M_AXI_ARREADY  $end
$var wire     32 &    M_AXI_RDATA [31:0] $end
$var wire      2 3    M_AXI_RRESP [1:0] $end
$var wire      1 /    M_AXI_RVALID  $end
$var wire      1 0    M_AXI_RREADY  $end
$var integer  32 N    C_M_TRANSACTIONS_NUM $end
$var parameter  5 O    IDLE [4:0] $end
$var parameter  5 P    INIT_GEN_MULT_READ [4:0] $end
$var parameter  5 Q    INIT_TEST_RES_READ [4:0] $end
$var parameter  5 R    INIT_KS_READ [4:0] $end
$var parameter  5 S    INIT_HSM_PUBLIC_KEY_READ [4:0] $end
$var parameter  5 T    INIT_WRITE [4:0] $end
$var parameter  5 U    INIT_READ [4:0] $end
$var parameter  5 V    INIT_WAIT [4:0] $end
$var parameter  5 W    INIT_POCA_RES_WRITE [4:0] $end
$var parameter  5 X    INIT_DONE [4:0] $end
$var parameter  5 Y    WAIT_ONE_CYCLE [4:0] $end
$var parameter  5 Z    TRNG_WRITE [4:0] $end
$var parameter  5 [    TRNG_WRITE_1_0 [4:0] $end
$var parameter  5 \    WAIT_FOR_DONE [4:0] $end
$var parameter  5 ]    READ_OUTPUT [4:0] $end
$var parameter  5 ^    SEND_TO_POCA [4:0] $end
$var parameter  5 _    DH_WRITE [4:0] $end
$var parameter  5 `    WAIT_STATE [4:0] $end
$var parameter  5 a    WAIT_FOR_CAPTURE [4:0] $end
$var parameter  5 b    HASH_WRITE [4:0] $end
$var parameter  5 c    WAIT_FOR_START [4:0] $end
$var reg       5 d    mst_exec_state [4:0] $end
$var reg       1 e    axi_awvalid $end
$var reg       1 f    axi_wvalid $end
$var reg       1 g    axi_arvalid $end
$var reg       1 h    axi_rready $end
$var reg       1 i    axi_bready $end
$var reg      32 j    axi_awaddr [31:0] $end
$var reg      32 k    axi_wdata [31:0] $end
$var reg      32 l    axi_araddr [31:0] $end
$var reg      32 m    axi_araddr_temp [31:0] $end
$var wire      1 n    write_resp_error  $end
$var wire      1 o    read_resp_error  $end
$var reg       1 p    start_single_write $end
$var reg       1 q    start_single_read $end
$var reg       1 r    write_issued $end
$var reg       1 s    read_issued $end
$var reg       1 t    writes_done $end
$var reg       1 u    reads_done $end
$var reg       8 v    write_index [7:0] $end
$var reg       8 w    read_index [7:0] $end
$var reg       1 x    last_write $end
$var reg       1 y    last_read $end
$var reg       1 z    init_txn_pulse $end
$var reg      32 {    generator_mult [31:0] $end
$var reg      32 |    test_response [31:0] $end
$var reg       1 }    go $end
$var reg       4 ~    KS_value [3:0] $end
$var reg       1 !!   write_complete $end
$var reg      32 "!   data_in [31:0] $end
$var reg       1 #!   data_input_ready $end
$var reg       1 $!   hsm_key_received $end
$var reg      256 %!   hsm_public_key [255:0] $end
$var reg       1 &!   input_data_transfer_complete $end
$var wire      1 '!   capture_cntl  $end
$var wire     768 (!   poca_output_response [767:0] $end
$var reg      768 )!   poca_output_response_reg [767:0] $end
$var wire     32 *!   addr_out [31:0] $end
$var reg      32 +!   addr_out_reg [31:0] $end
$var wire      1 ,!   is_write  $end
$var wire     32 -!   enable_data_out [31:0] $end
$var reg      32 .!   enable_data_out_reg [31:0] $end
$var wire     128 /!   ecc_input_1 [127:0] $end
$var reg      128 0!   ecc_input_1_reg [127:0] $end
$var wire     128 1!   ecc_input_2 [127:0] $end
$var reg      128 2!   ecc_input_2_reg [127:0] $end
$var wire     32 3!   hash_input_r [31:0] $end
$var reg      1024 4!   hash_input_r_reg [1023:0] $end
$var wire     324 5!   hash_input_g_p_qa_r [323:0] $end
$var wire      1 6!   shared_secret_key_ready  $end
$var wire      1 7!   poca_output_ready  $end
$var wire      1 8!   test_response_ready  $end
$var reg       1 9!   INIT_AXI_TXN $end
$var reg       2 :!   TRNG_Op_Type [1:0] $end
$var reg      32 ;!   TRNG_SRAM_val0 [31:0] $end
$var reg       2 <!   TRNG_write_steps [1:0] $end
$var reg       1 =!   TRNG_write_access $end
$var reg       2 >!   HASH_write_steps [1:0] $end
$var reg       1 ?!   HASH_write_access $end
$var reg       2 @!   DH_write_steps [1:0] $end
$var reg      128 A!   TRNG_output [127:0] $end
$var reg      512 B!   HASH_output [511:0] $end
$var reg      288 C!   DH_output [287:0] $end
$var reg       8 D!   word_count [7:0] $end
$var reg       8 E!   wait_count [7:0] $end
$var reg      32 F!   slave_base_address [31:0] $end
$var wire      8 G!   write_addr_index [7:0] $end
$var reg       1 H!   slave_IP_done $end

$scope module U0_poca_master $end
$var parameter 32 I!   address_bus_size $end
$var parameter 32 J!   data_bus_size $end
$var parameter 32 K!   total_number_byte_size $end
$var parameter 32 L!   enable_data_out_size $end
$var parameter 32 M!   ecc_mult_input_size $end
$var parameter 32 N!   ECC_input_size $end
$var parameter 32 O!   test_response_size $end
$var parameter 32 P!   KS_value_size $end
$var parameter 32 Q!   P_value_size $end
$var parameter 32 R!   capture_count_size $end
$var parameter 32 S!   TRNG_output_size $end
$var parameter 32 T!   Private_key_chip_size $end
$var parameter 32 U!   hash_output_size $end
$var parameter 32 V!   ecc_output_size $end
$var parameter 32 W!   TRNG_write_base_addr $end
$var parameter 32 X!   TRNG_read_base_addr $end
$var parameter 32 Y!   ECC_write_base_addr $end
$var parameter 32 Z!   ECC_read_base_addr $end
$var parameter 32 [!   Hash_write_base_addr $end
$var parameter 32 \!   Hash_read_base_addr $end
$var wire     32 ]!   generator_mult [31:0] $end
$var wire     32 ^!   test_response [31:0] $end
$var wire      1 J    clk  $end
$var wire      1 _!   go  $end
$var wire      1 K    rstn  $end
$var wire      4 `!   KS_value [3:0] $end
$var wire      1 a!   write_complete  $end
$var wire     32 b!   data_in [31:0] $end
$var wire      1 c!   data_input_ready  $end
$var wire      1 d!   hsm_key_received  $end
$var wire     256 e!   hsm_public_key [255:0] $end
$var wire      1 f!   input_data_transfer_complete  $end
$var reg       1 g!   capture_cntl $end
$var reg      768 h!   poca_output_response [767:0] $end
$var reg      32 i!   addr_out [31:0] $end
$var reg       1 j!   is_write $end
$var reg      32 k!   enable_data_out [31:0] $end
$var reg      128 l!   ecc_input_1 [127:0] $end
$var reg      128 m!   ecc_input_2 [127:0] $end
$var reg      32 n!   hash_input_r [31:0] $end
$var reg      324 o!   hash_input_g_p_qa_r [323:0] $end
$var reg       1 p!   shared_secret_key_ready $end
$var reg       1 q!   poca_output_ready $end
$var reg       1 r!   test_response_ready $end
$var reg      16 s!   cnt [15:0] $end
$var reg       1 t!   capture_en $end
$var reg       1 u!   capture_count_done $end
$var reg      128 v!   private_key_chip [127:0] $end
$var reg       1 w!   private_key_ready $end
$var reg      32 x!   generator_reg [31:0] $end
$var reg       4 y!   KS_value_reg [3:0] $end
$var reg       1 z!   p_value_ready $end
$var reg      32 {!   test_response_reg [31:0] $end
$var reg       1 |!   hash_R_ready $end
$var reg      256 }!   hash_R_reg [255:0] $end
$var reg       1 ~!   ecc_mult_ready $end
$var reg      256 !"   public_key_chip [255:0] $end
$var reg       1 ""   hash_combination_ready $end
$var reg      256 #"   hash_g_p_qa_r [255:0] $end
$var reg      256 $"   hsm_public_key_reg [255:0] $end
$var reg       1 %"   secret_key_ready $end
$var reg      256 &"   secret_key_chip [255:0] $end
$var reg      32 '"   counter_scan_shift [31:0] $end
$var reg      128 ("   P_value_trng_reg [127:0] $end
$var reg       1 )"   ecc_write_wait_additional_cycle $end
$var reg       1 *"   ecc_write_wait_additional_cycle_cntl $end
$var reg       4 +"   state [3:0] $end
$var reg       4 ,"   next_state [3:0] $end
$var wire     324 -"   combination__g_p_qa_r [323:0] $end
$var parameter  4 ."   IDLE $end
$var parameter  4 /"   TRNG_write $end
$var parameter  4 0"   TRNG_read $end
$var parameter  4 1"   ECC_write $end
$var parameter  4 2"   TRNG_write_p $end
$var parameter  4 3"   TRNG_read_p $end
$var parameter  4 4"   Capture_wait $end
$var parameter  4 5"   Hash_write $end
$var parameter  4 6"   Hash_read $end
$var parameter  4 7"   ECC_read $end
$var parameter  4 8"   Hash_write_1 $end
$var parameter  4 9"   Hash_read_1 $end
$var parameter  4 :"   Output_poca $end
$var parameter  4 ;"   ECC_write_secret_key $end
$var parameter  4 <"   ECC_read_secret_key $end
$var parameter  4 ="   Done_FSM $end
$upscope $end

$upscope $end


$scope module axi_slave $end
$var parameter 32 >"   DATA_W $end
$var parameter 32 ?"   KEY_L $end
$var parameter 32 @"   NO_ROUNDS $end
$var parameter 32 A"   C_S_AXI_DATA_WIDTH $end
$var parameter 32 B"   C_S_AXI_ADDR_WIDTH $end
$var wire      1 C"   S_AXI_ACLK  $end
$var wire      1 D"   S_AXI_ARESETN  $end
$var wire     32 #    S_AXI_AWADDR [31:0] $end
$var wire      3 E"   S_AXI_AWPROT [2:0] $end
$var wire      1 '    S_AXI_AWVALID  $end
$var wire      1 (    S_AXI_AWREADY  $end
$var wire     32 %    S_AXI_WDATA [31:0] $end
$var wire      4 1    S_AXI_WSTRB [3:0] $end
$var wire      1 )    S_AXI_WVALID  $end
$var wire      1 *    S_AXI_WREADY  $end
$var wire      2 2    S_AXI_BRESP [1:0] $end
$var wire      1 +    S_AXI_BVALID  $end
$var wire      1 ,    S_AXI_BREADY  $end
$var wire     32 $    S_AXI_ARADDR [31:0] $end
$var wire      3 F"   S_AXI_ARPROT [2:0] $end
$var wire      1 -    S_AXI_ARVALID  $end
$var wire      1 .    S_AXI_ARREADY  $end
$var wire     32 &    S_AXI_RDATA [31:0] $end
$var wire      2 3    S_AXI_RRESP [1:0] $end
$var wire      1 /    S_AXI_RVALID  $end
$var wire      1 0    S_AXI_RREADY  $end
$var reg      32 G"   axi_awaddr [31:0] $end
$var reg       1 H"   axi_awready $end
$var reg       1 I"   axi_wready $end
$var reg       2 J"   axi_bresp [1:0] $end
$var reg       1 K"   axi_bvalid $end
$var reg      32 L"   axi_araddr [31:0] $end
$var reg       1 M"   axi_arready $end
$var reg      32 N"   axi_rdata [31:0] $end
$var reg       2 O"   axi_rresp [1:0] $end
$var reg       1 P"   axi_rvalid $end
$var parameter 32 Q"   ADDR_LSB $end
$var parameter 32 R"   OPT_MEM_ADDR_BITS $end
$var reg      32 S"   slv_reg0 [31:0] $end
$var wire      1 T"   slv_reg_rden  $end
$var wire      1 U"   slv_reg_wren  $end
$var reg      32 V"   reg_data_out [31:0] $end
$var integer  32 W"   byte_index $end
$var reg       1 X"   aw_en $end
$upscope $end

$upscope $end

$enddefinitions $end
$dumpvars
b100 R"
b10 Q"
b100000 B"
b100000 A"
b1010 @"
b10000000 ?"
b10000000 >"
b1111 ="
b1110 <"
b1101 ;"
b1100 :"
b1011 9"
b1010 8"
b1001 7"
b1000 6"
b111 5"
b110 4"
b101 3"
b100 2"
b11 1"
b10 0"
b1 /"
b0 ."
b1000011000000000000000000000000 \!
b1000011000000000000000000000000 [!
b1000110000000000000000000000000 Z!
b1000110000000000000000000000000 Y!
b1100000000000000000000000000000 X!
b1100000000000000000000000000000 W!
b100000000 V!
b100000000 U!
b10000000 T!
b10000000 S!
b10000 R!
b100 Q!
b100 P!
b100000 O!
b10000000 N!
b100000 M!
b100000 L!
b1000 K!
b100000 J!
b100000 I!
b10100 c
b10011 b
b10010 a
b10001 `
b10000 _
b1111 ^
b1110 ]
b1101 \
b1100 [
b1011 Z
b1010 Y
b1001 X
b1000 W
b111 V
b110 U
b101 T
b100 S
b11 R
b10 Q
b1 P
b0 O
b100000 I
b100000 H
b10101010000000000000000000000000 G
b1000001001000000000000000000000 F
b1000011000000000000000000000000 E
b1000110000000000000000000000000 D
b1100000000000000000000000000000 C
b10000010000000000000000000000000 B
b100000000 A
b100000000 @
b10000000 ?
b10000000 >
b10000 =
b100 <
b100 ;
b100000 :
b10000000 9
b100000 8
b100000 7
b1000 6
b100000 5
b100000 4
0!
1"
bx #
bx $
bx %
bx &
x'
x(
x)
x*
x+
x,
x-
x.
x/
x0
b1111 1
bx 2
bx 3
0J
1K
b0 L
b1 M
bx N
bx d
xe
xf
xg
xh
xi
bx j
bx k
bx l
bx m
xn
xo
xp
xq
xr
xs
xt
xu
bx v
bx w
xx
xy
xz
bx {
bx |
x}
bx ~
x!!
bx "!
x#!
x$!
bx %!
x&!
x'!
bx (!
bx )!
bx *!
bx +!
x,!
bx -!
bx .!
bx /!
bx 0!
bx 1!
bx 2!
bx 3!
bx 4!
bx 5!
x6!
x7!
x8!
x9!
bx :!
bx ;!
bx <!
x=!
bx >!
x?!
bx @!
bx A!
bx B!
bx C!
bx D!
bx E!
bx F!
bx G!
xH!
bx ]!
bx ^!
x_!
bx `!
xa!
bx b!
xc!
xd!
bx e!
xf!
xg!
bx h!
bx i!
xj!
bx k!
bx l!
bx m!
bx n!
bx o!
xp!
xq!
xr!
bx s!
xt!
xu!
bx v!
xw!
bx x!
bx y!
xz!
bx {!
x|!
bx }!
x~!
bx !"
x""
bx #"
bx $"
x%"
bx &"
bx '"
bx ("
x)"
x*"
bx +"
bx ,"
bx -"
0C"
1D"
bz E"
bz F"
bx G"
xH"
xI"
bx J"
xK"
bx L"
xM"
bx N"
bx O"
xP"
bx S"
xT"
xU"
bx V"
bx W"
xX"
$end
#5
1!
1C"
1J
0M"
0I"
0H"
b10100 d
b0xxxxxxxxxxxxxxxxxxxxxxxxxxxxxxxxxxxxxxxxxxxxxxxxxxxxxxxxxxxxxxxxxxxxxxxxxxxxxxxxxxxxxxxxxxxxxxxxxxxxxxxxxxxxxxxxxxxxxxxxxxxxxxxxxxxxxxxxxxxxxxxxxxxxxxxxxxxxxxxxxxxxxxxxxxxxxxxxxxxxxxxxxxxxxxxxxxxxxxxxxxxxxxxxxxxxxxxxxxxxxxxxxxxxxxxxxxxxxxxxxxxxxxxxxxxxxxxxxxxxxxxxxxxxxxxxxxxxxxxxxxxxxxxxxxxxxxxxxxxxxxxxxxxxxxxxxxxxxxxxxxxx 4!
0U"
0T"
0(
0*
0.
#10
0"
0!
0C"
0J
0D"
0K
#15
1!
1C"
1J
b0 N"
b0 L"
0P"
b0 O"
b0 S"
0K"
b0 J"
1X"
b0 G"
0y
0x
0t
0p
0r
0q
0s
b0 F!
b0 N
0}
0!!
b0 "!
b0 :!
b0 ;!
b0 <!
0=!
b0 >!
0?!
b0 @!
b0 D!
b0 E!
0#!
0&!
0$!
0z
b0 %!
b0 ~
b0 |
b0 {
09!
b0 k
0h
0H!
b0 A!
b0 B!
b0 C!
0u
0i
b0 w
0g
b0 l
0e
b0 v
0f
b0 j
b0 )!
b0 +!
b0 .!
b0 0!
b0 2!
b0 4!
b0 +"
b0 &"
b0 $"
b0 #"
b0 !"
b0 }!
b0 ("
b0 v!
b0 '"
0r!
0g!
b0 s!
0u!
b0 {!
0)"
b0 x!
b0 y!
b0 i!
b0 k!
0j!
b0 ,"
0w!
0p!
0%"
b0 l!
b0 m!
0z!
b0 n!
0|!
0~!
b0 o!
0""
b0 h!
0t!
0*"
0q!
b0 -"
07!
b0 (!
b0 5!
b0 3!
b0 1!
b0 /!
06!
0,!
b0 -!
b0 *!
0n
0o
b0 ]!
b0 ^!
b0 `!
b0 e!
0d!
0f!
0c!
b0 b!
0a!
0_!
b0 $
b0 #
0'!
08!
0)
0'
0-
0,
00
b0 %
b0 2
0+
b0 3
0/
b0 &
b0 G!
b0 V"
#20
1"
0!
0C"
0J
1D"
1K
#25
1!
1C"
1J
1q
1s
b10000010000000000000001000000000 F!
b1 N
b10000010000000000000001000000000 $
b10000010000000000000001000000000 #
#30
0!
0C"
0J
#35
1!
1C"
1J
0q
b1 w
1g
1-
#40
0!
0C"
0J
#45
1!
1C"
1J
1M"
b10000010000000000000001000000000 L"
1T"
1.
b1 V"
#50
0!
0C"
0J
#55
1!
1C"
1J
b1 N"
0M"
1P"
1y
0g
b100 m
0T"
0-
1/
0.
b1 &
#60
0!
0C"
0J
#65
1!
1C"
1J
1h
10
#70
0!
0C"
0J
#75
1!
1C"
1J
0P"
0s
19!
0h
1u
b100 l
b10000010000000000000001000000100 $
00
0/
#80
0!
0C"
0J
#85
1!
1C"
1J
1z
#90
0!
0C"
0J
#95
1!
1C"
1J
0y
b0 d
0z
0u
b0 w
b0 l
b10000010000000000000001000000000 $
#100
0!
0C"
0J
#105
1!
1C"
1J
1z
#110
0!
0C"
0J
#115
1!
1C"
1J
b1 d
0z
#120
0!
0C"
0J
#125
1!
1C"
1J
1q
1s
b10000010000000000000000000000000 F!
b10000010000000000000000000000000 $
b10000010000000000000000000000000 #
#130
0!
0C"
0J
#135
1!
1C"
1J
0q
b1 w
1g
1-
#140
0!
0C"
0J
#145
1!
1C"
1J
1M"
b10000010000000000000000000000000 L"
1T"
1.
b10010001101000101011001111000 V"
#150
0!
0C"
0J
#155
1!
1C"
1J
b10010001101000101011001111000 N"
0M"
1P"
1y
0g
0T"
0-
1/
0.
b10010001101000101011001111000 &
#160
0!
0C"
0J
#165
1!
1C"
1J
1h
10
#170
0!
0C"
0J
#175
1!
1C"
1J
0P"
0s
b10010001101000101011001111000 {
0h
1u
b100 l
b10000010000000000000000000000100 $
b10010001101000101011001111000 ]!
00
0/
#180
0!
0C"
0J
#185
1!
1C"
1J
1z
b10010001101000101011001111000 x!
b100100011010001010110011110000000000000000000000000000000000000000000000000000000000000000000000000000000000000000000000000000000000000000000000000000000000000000000000000000000000000000000000000000000000000000000000000000000000000000000000000000000000000000000000000000000000000000000000000000000000000000000000000000000 -"
#190
0!
0C"
0J
#195
1!
1C"
1J
0y
b10 d
0z
0u
b0 w
b0 l
b10000010000000000000000000000000 $
#200
0!
0C"
0J
#205
1!
1C"
1J
1q
1s
b10000010000000000000000000000100 F!
b10000010000000000000000000000100 $
b10000010000000000000000000000100 #
b100 G!
#210
0!
0C"
0J
#215
1!
1C"
1J
0q
b1 w
1g
1-
#220
0!
0C"
0J
#225
1!
1C"
1J
1M"
b10000010000000000000000000000100 L"
1T"
1.
#230
0!
0C"
0J
#235
1!
1C"
1J
0M"
1P"
1y
0g
0T"
0-
1/
0.
#240
0!
0C"
0J
#245
1!
1C"
1J
1h
10
#250
0!
0C"
0J
#255
1!
1C"
1J
0P"
0s
b10010001101000101011001111000 |
0h
1u
b100 l
b10000010000000000000000000001000 $
b10010001101000101011001111000 ^!
00
0/
#260
0!
0C"
0J
#265
1!
1C"
1J
1z
b10010001101000101011001111000 {!
b100100011010001010110011110000000000000000000000000000000000000000000000000000000000000000000000000000000000000000000000000000000000000000000000000000000000000000000000000000000000000000000000000000000000000000000000000000000000000000000000000000000000000000000000000000000000000000000000000010010001101000101011001111000 -"
#270
0!
0C"
0J
#275
1!
1C"
1J
0y
b11 d
0z
0u
b0 w
b0 l
b10000010000000000000000000000100 $
#280
0!
0C"
0J
#285
1!
1C"
1J
1q
1s
b10000010000000000000000000001000 F!
b10000010000000000000000000001000 $
b10000010000000000000000000001000 #
b1000 G!
#290
0!
0C"
0J
#295
1!
1C"
1J
0q
b1 w
1g
1-
#300
0!
0C"
0J
#305
1!
1C"
1J
1M"
b10000010000000000000000000001000 L"
1T"
1.
b101 V"
#310
0!
0C"
0J
#315
1!
1C"
1J
b101 N"
0M"
1P"
1y
0g
0T"
0-
1/
0.
b101 &
#320
0!
0C"
0J
#325
1!
1C"
1J
1h
10
#330
0!
0C"
0J
#335
1!
1C"
1J
0P"
0s
b101 ~
0h
1u
b100 l
b10000010000000000000000000001100 $
b101 `!
00
0/
#340
0!
0C"
0J
#345
1!
1C"
1J
1z
b1010000 s!
b101 y!
#350
0!
0C"
0J
#355
1!
1C"
1J
0y
1}
b1010 d
0z
0u
b0 w
b0 l
b10000010000000000000000000001000 $
1_!
b1 ,"
#360
0!
0C"
0J
#365
1!
1C"
1J
b111 d
b1 +"
b1100000000000000000000000000000 i!
b1 k!
1j!
1,!
b1 -!
b1100000000000000000000000000000 *!
#370
0!
0C"
0J
#375
1!
1C"
1J
b101 d
b1100000000000000000000000000000 +!
b1 .!
#380
0!
0C"
0J
#385
1!
1C"
1J
b101100010101001111000 ;!
b1011 d
#390
0!
0C"
0J
#395
1!
1C"
1J
1p
1r
b1100000000000000000000000000000 F!
b10010 N
b1100000000000000000000000000000 $
b1100000000000000000000000000000 #
b0 G!
#400
0!
0C"
0J
#405
1!
1C"
1J
0p
1e
b1 v
1f
1)
1'
#410
0!
0C"
0J
#415
1!
1C"
1J
1I"
1H"
0X"
b1100000000000000000000000000000 G"
1U"
1(
1*
#420
0!
0C"
0J
#425
1!
1C"
1J
b0 W"
b1 W"
b10 W"
b11 W"
b100 W"
0I"
1K"
0H"
0e
0f
b100 j
b1100000000000000000000000000100 #
0U"
0)
0'
0(
1+
0*
b100 G!
#430
0!
0C"
0J
#435
1!
1C"
1J
1i
1,
#440
0!
0C"
0J
#445
1!
1C"
1J
0K"
1X"
0r
0i
0,
0+
#450
0!
0C"
0J
#455
1!
1C"
1J
1p
1r
#460
0!
0C"
0J
#465
1!
1C"
1J
0p
1e
b10 v
1f
1)
1'
#470
0!
0C"
0J
#475
1!
1C"
1J
1I"
1H"
0X"
b1100000000000000000000000000100 G"
1U"
1(
1*
#480
0!
0C"
0J
#485
1!
1C"
1J
b0 W"
b1 W"
b10 W"
b11 W"
b100 W"
0I"
1K"
0H"
0e
0f
b1000 j
b1100000000000000000000000001000 #
0U"
0)
0'
0(
1+
0*
b1000 G!
#490
0!
0C"
0J
#495
1!
1C"
1J
1i
1,
#500
0!
0C"
0J
#505
1!
1C"
1J
0K"
1X"
0r
0i
0,
0+
#510
0!
0C"
0J
#515
1!
1C"
1J
1p
1r
#520
0!
0C"
0J
#525
1!
1C"
1J
0p
b101100010101001111000 k
1e
b11 v
1f
1)
1'
b101100010101001111000 %
#530
0!
0C"
0J
#535
1!
1C"
1J
1I"
1H"
0X"
b1100000000000000000000000001000 G"
1U"
1(
1*
#540
0!
0C"
0J
#545
1!
1C"
1J
b0 W"
b1 W"
b10 W"
b11 W"
b100 W"
b1111000 S"
b10101001111000 S"
b101100010101001111000 S"
0I"
1K"
0H"
0e
0f
b1100 j
b1100000000000000000000000001100 #
0U"
0)
0'
0(
1+
0*
b1100 G!
#550
0!
0C"
0J
#555
1!
1C"
1J
1i
1,
#560
0!
0C"
0J
#565
1!
1C"
1J
0K"
1X"
0r
0i
0,
0+
#570
0!
0C"
0J
#575
1!
1C"
1J
1p
1r
#580
0!
0C"
0J
#585
1!
1C"
1J
0p
b0 k
1e
b100 v
1f
1)
1'
b0 %
#590
0!
0C"
0J
#595
1!
1C"
1J
1I"
1H"
0X"
b1100000000000000000000000001100 G"
1U"
1(
1*
#600
0!
0C"
0J
#605
1!
1C"
1J
b0 W"
b1 W"
b10 W"
b11 W"
b100 W"
b101100010101000000000 S"
b101100000000000000000 S"
b0 S"
0I"
1K"
0H"
0e
0f
b10000 j
b1100000000000000000000000010000 #
0U"
0)
0'
0(
1+
0*
b10000 G!
#610
0!
0C"
0J
#615
1!
1C"
1J
1i
1,
#620
0!
0C"
0J
#625
1!
1C"
1J
0K"
1X"
0r
0i
0,
0+
#630
0!
0C"
0J
#635
1!
1C"
1J
1p
1r
#640
0!
0C"
0J
#645
1!
1C"
1J
0p
1e
b101 v
1f
1)
1'
#650
0!
0C"
0J
#655
1!
1C"
1J
1I"
1H"
0X"
b1100000000000000000000000010000 G"
1U"
1(
1*
#660
0!
0C"
0J
#665
1!
1C"
1J
b0 W"
b1 W"
b10 W"
b11 W"
b100 W"
0I"
1K"
0H"
0e
0f
b10100 j
b1100000000000000000000000010100 #
0U"
0)
0'
0(
1+
0*
b10100 G!
#670
0!
0C"
0J
#675
1!
1C"
1J
1i
1,
#680
0!
0C"
0J
#685
1!
1C"
1J
0K"
1X"
0r
0i
0,
0+
#690
0!
0C"
0J
#695
1!
1C"
1J
1p
1r
#700
0!
0C"
0J
#705
1!
1C"
1J
0p
1e
b110 v
1f
1)
1'
#710
0!
0C"
0J
#715
1!
1C"
1J
1I"
1H"
0X"
b1100000000000000000000000010100 G"
1U"
1(
1*
#720
0!
0C"
0J
#725
1!
1C"
1J
b0 W"
b1 W"
b10 W"
b11 W"
b100 W"
0I"
1K"
0H"
0e
0f
b11000 j
b1100000000000000000000000011000 #
0U"
0)
0'
0(
1+
0*
b11000 G!
#730
0!
0C"
0J
#735
1!
1C"
1J
1i
1,
#740
0!
0C"
0J
#745
1!
1C"
1J
0K"
1X"
0r
0i
0,
0+
#750
0!
0C"
0J
#755
1!
1C"
1J
1p
1r
#760
0!
0C"
0J
#765
1!
1C"
1J
0p
1e
b111 v
1f
1)
1'
#770
0!
0C"
0J
#775
1!
1C"
1J
1I"
1H"
0X"
b1100000000000000000000000011000 G"
1U"
1(
1*
#780
0!
0C"
0J
#785
1!
1C"
1J
b0 W"
b1 W"
b10 W"
b11 W"
b100 W"
0I"
1K"
0H"
0e
0f
b11100 j
b1100000000000000000000000011100 #
0U"
0)
0'
0(
1+
0*
b11100 G!
#790
0!
0C"
0J
#795
1!
1C"
1J
1i
1,
#800
0!
0C"
0J
#805
1!
1C"
1J
0K"
1X"
0r
0i
0,
0+
#810
0!
0C"
0J
#815
1!
1C"
1J
1p
1r
#820
0!
0C"
0J
#825
1!
1C"
1J
0p
1e
b1000 v
1f
1)
1'
#830
0!
0C"
0J
#835
1!
1C"
1J
1I"
1H"
0X"
b1100000000000000000000000011100 G"
1U"
1(
1*
#840
0!
0C"
0J
#845
1!
1C"
1J
b0 W"
b1 W"
b10 W"
b11 W"
b100 W"
0I"
1K"
0H"
0e
0f
b100000 j
b1100000000000000000000000100000 #
0U"
0)
0'
0(
1+
0*
b100000 G!
#850
0!
0C"
0J
#855
1!
1C"
1J
1i
1,
#860
0!
0C"
0J
#865
1!
1C"
1J
0K"
1X"
0r
0i
0,
0+
#870
0!
0C"
0J
#875
1!
1C"
1J
1p
1r
#880
0!
0C"
0J
#885
1!
1C"
1J
0p
1e
b1001 v
1f
1)
1'
#890
0!
0C"
0J
#895
1!
1C"
1J
1I"
1H"
0X"
b1100000000000000000000000100000 G"
1U"
1(
1*
#900
0!
0C"
0J
#905
1!
1C"
1J
b0 W"
b1 W"
b10 W"
b11 W"
b100 W"
0I"
1K"
0H"
0e
0f
b100100 j
b1100000000000000000000000100100 #
0U"
0)
0'
0(
1+
0*
b100100 G!
#910
0!
0C"
0J
#915
1!
1C"
1J
1i
1,
#920
0!
0C"
0J
#925
1!
1C"
1J
0K"
1X"
0r
0i
0,
0+
#930
0!
0C"
0J
#935
1!
1C"
1J
1p
1r
#940
0!
0C"
0J
#945
1!
1C"
1J
0p
1e
b1010 v
1f
1)
1'
#950
0!
0C"
0J
#955
1!
1C"
1J
1I"
1H"
0X"
b1100000000000000000000000100100 G"
1U"
1(
1*
#960
0!
0C"
0J
#965
1!
1C"
1J
b0 W"
b1 W"
b10 W"
b11 W"
b100 W"
0I"
1K"
0H"
0e
0f
b101000 j
b1100000000000000000000000101000 #
0U"
0)
0'
0(
1+
0*
b101000 G!
#970
0!
0C"
0J
#975
1!
1C"
1J
1i
1,
#980
0!
0C"
0J
#985
1!
1C"
1J
0K"
1X"
0r
0i
0,
0+
#990
0!
0C"
0J
#995
1!
1C"
1J
1p
1r
#1000
0!
0C"
0J
